\providecommand{\href}[2]{#2}\begingroup\raggedright\begin{thebibliography}{100}%
\makeatletter
\providecommand{\hrefCMSnoop }[0]{\@secondoftwo}%
\makeatother
\providecommand{\doi}{\texttt{doi:}\begingroup \urlstyle{tt}\Url}

\bibitem{Gao:2010qx}
Y.~Gao\hrefCMSnoop {}{ {et~al.}, ``{Spin determination of single-produced
  resonances at hadron colliders}'',} \textit{ Phys. Rev. D} \textbf{ 81}
  (2010) 075022,
  \href{http://dx.doi.org/10.1103/PhysRevD.81.075022}{\doi{10.1103/PhysRevD.81.075022}},
\href{http://www.arXiv.org/abs/1001.3396}{\texttt{ arXiv:1001.3396}}.
%%CITATION = ARXIV:1001.3396;%%.

\bibitem{Bolognesi:2012mm}
S.~Bolognesi\hrefCMSnoop {}{ {et~al.}, ``{Spin and parity of a single-produced
  resonance at the LHC}'',} \textit{ Phys. Rev. D} \textbf{ 86} (2012) 095031,
  \href{http://dx.doi.org/10.1103/PhysRevD.86.095031}{\doi{10.1103/PhysRevD.86.095031}},
\href{http://www.arXiv.org/abs/1208.4018}{\texttt{ arXiv:1208.4018}}.
%%CITATION = ARXIV:1208.4018;%%.

\bibitem{Anderson:2013afp}
I.~Anderson\hrefCMSnoop {}{ {et~al.}, ``{Constraining anomalous HVV
  interactions at proton and lepton colliders}'',} \textit{ Phys. Rev. D}
  \textbf{ 89} (2014) 035007,
  \href{http://dx.doi.org/10.1103/PhysRevD.89.035007}{\doi{10.1103/PhysRevD.89.035007}},
\href{http://www.arXiv.org/abs/1309.4819}{\texttt{ arXiv:1309.4819}}.
%%CITATION = ARXIV:1309.4819;%%.

\bibitem{Gritsan:2016hjl}
\hrefCMSnoop {}{A.~V. Gritsan, R.~R{\"o}ntsch, M.~Schulze, and M.~Xiao,
  ``{Constraining anomalous Higgs boson couplings to the heavy flavor fermions
  using matrix element techniques}'',} \textit{ Phys. Rev. D} \textbf{ 94}
  (2016) 055023,
  \href{http://dx.doi.org/10.1103/PhysRevD.94.055023}{\doi{10.1103/PhysRevD.94.055023}},
\href{http://www.arXiv.org/abs/1606.03107}{\texttt{ arXiv:1606.03107}}.
%%CITATION = ARXIV:1606.03107;%%.

\bibitem{Campbell:2010ff}
\hrefCMSnoop {}{J.~M. Campbell and R.~K. Ellis, ``{MCFM for the Tevatron and
  the LHC}'',} \textit{ Nucl. Phys. Proc. Suppl.} \textbf{ 205-206} (2010)
  10--15,
  \href{http://dx.doi.org/10.1016/j.nuclphysbps.2010.08.011}{\doi{10.1016/j.nuclphysbps.2010.08.011}},
\href{http://www.arXiv.org/abs/1007.3492}{\texttt{ arXiv:1007.3492}}.
%%CITATION = ARXIV:1007.3492;%%.

\bibitem{Campbell:2011bn}
\hrefCMSnoop {}{J.~M. Campbell, R.~K. Ellis, and C.~Williams, ``{Vector boson
  pair production at the LHC}'',} \textit{ JHEP} \textbf{ 07} (2011) 018,
  \href{http://dx.doi.org/10.1007/JHEP07(2011)018}{\doi{10.1007/JHEP07(2011)018}},
\href{http://www.arXiv.org/abs/1105.0020}{\texttt{ arXiv:1105.0020}}.
%%CITATION = ARXIV:1105.0020;%%.

\bibitem{Campbell:2013una}
\hrefCMSnoop {}{J.~M. Campbell, R.~K. Ellis, and C.~Williams, ``{Bounding the
  Higgs width at the LHC using full analytic results for $gg \to e^- e^+ \mu^-
  \mu^+$}'',} \textit{ JHEP} \textbf{ 04} (2014) 060,
  \href{http://dx.doi.org/10.1007/JHEP04(2014)060}{\doi{10.1007/JHEP04(2014)060}},
\href{http://www.arXiv.org/abs/1311.3589}{\texttt{ arXiv:1311.3589}}.
%%CITATION = ARXIV:1311.3589;%%.

\bibitem{Campbell:2015vwa}
\hrefCMSnoop {}{J.~M. Campbell and R.~K. Ellis, ``{Higgs constraints from
  vector boson fusion and scattering}'',} \textit{ JHEP} \textbf{ 04} (2015)
  030,
  \href{http://dx.doi.org/10.1007/JHEP04(2015)030}{\doi{10.1007/JHEP04(2015)030}},
\href{http://www.arXiv.org/abs/1502.02990}{\texttt{ arXiv:1502.02990}}.
%%CITATION = ARXIV:1502.02990;%%.

\bibitem{Campbell:2015qma}
\hrefCMSnoop {}{J.~M. Campbell, R.~K. Ellis, and W.~T. Giele, ``{A
  Multi-Threaded Version of MCFM}'',} \textit{ Eur. Phys. J. C} \textbf{ 75}
  (2015) 246,
  \href{http://dx.doi.org/10.1140/epjc/s10052-015-3461-2}{\doi{10.1140/epjc/s10052-015-3461-2}},
\href{http://www.arXiv.org/abs/1503.06182}{\texttt{ arXiv:1503.06182}}.
%%CITATION = ARXIV:1503.06182;%%.

\bibitem{Nelson:1986ki}
\hrefCMSnoop {}{C.~A. Nelson, ``{Correlation between decay planes in
  Higgs-boson decays into a W Pair (into a Z Pair)}'',} \textit{ Phys. Rev. D}
  \textbf{ 37} (1988) 1220,
\href{http://dx.doi.org/10.1103/PhysRevD.37.1220}{\doi{10.1103/PhysRevD.37.1220}}.
%%CITATION = PHRVA,D37,1220;%%.

\bibitem{Soni:1993jc}
\hrefCMSnoop {}{A.~Soni and R.~M. Xu, ``{Probing CP violation via Higgs decays
  to four leptons}'',} \textit{ Phys. Rev. D} \textbf{ 48} (1993) 5259,
  \href{http://dx.doi.org/10.1103/PhysRevD.48.5259}{\doi{10.1103/PhysRevD.48.5259}},
\href{http://www.arXiv.org/abs/hep-ph/9301225}{\texttt{ arXiv:hep-ph/9301225}}.
%%CITATION = HEP-PH/9301225;%%.

\bibitem{Plehn:2001nj}
\hrefCMSnoop {}{T.~Plehn, D.~L. Rainwater, and D.~Zeppenfeld, ``{Determining
  the structure of Higgs couplings at the LHC}'',} \textit{ Phys. Rev. Lett.}
  \textbf{ 88} (2002) 051801,
  \href{http://dx.doi.org/10.1103/PhysRevLett.88.051801}{\doi{10.1103/PhysRevLett.88.051801}},
\href{http://www.arXiv.org/abs/hep-ph/0105325}{\texttt{ arXiv:hep-ph/0105325}}.
%%CITATION = HEP-PH/0105325;%%.

\bibitem{Choi:2002jk}
\hrefCMSnoop {}{S.~Y. Choi, D.~J. Miller, M.~M. M{\" u}hlleitner, and P.~M.
  Zerwas, ``{Identifying the Higgs spin and parity in decays to Z pairs}'',}
  \textit{ Phys. Lett. B} \textbf{ 553} (2003) 61,
  \href{http://dx.doi.org/10.1016/S0370-2693(02)03191-X}{\doi{10.1016/S0370-2693(02)03191-X}},
\href{http://www.arXiv.org/abs/hep-ph/0210077}{\texttt{ arXiv:hep-ph/0210077}}.
%%CITATION = HEP-PH/0210077;%%.

\bibitem{Buszello:2002uu}
\hrefCMSnoop {}{C.~P. Buszello, I.~Fleck, P.~Marquard, and J.~J. van~der Bij,
  ``{Prospective analysis of spin- and CP-sensitive variables in $H \to ZZ \to
  \ell_1^+ \ell_1^- \ell_2^+ \ell_2^-$ at the LHC}'',} \textit{ Eur. Phys. J.
  C} \textbf{ 32} (2004) 209,
  \href{http://dx.doi.org/10.1140/epjc/s2003-01392-0}{\doi{10.1140/epjc/s2003-01392-0}},
\href{http://www.arXiv.org/abs/hep-ph/0212396}{\texttt{ arXiv:hep-ph/0212396}}.
%%CITATION = HEP-PH/0212396;%%.

\bibitem{Hankele:2006ma}
\hrefCMSnoop {}{V.~Hankele, G.~Klamke, D.~Zeppenfeld, and T.~Figy, ``{Anomalous
  Higgs boson couplings in vector boson fusion at the CERN LHC}'',} \textit{
  Phys. Rev. D} \textbf{ 74} (2006) 095001,
  \href{http://dx.doi.org/10.1103/PhysRevD.74.095001}{\doi{10.1103/PhysRevD.74.095001}},
\href{http://www.arXiv.org/abs/hep-ph/0609075}{\texttt{ arXiv:hep-ph/0609075}}.
%%CITATION = HEP-PH/0609075;%%.

\bibitem{Accomando:2006ga}
\hrefCMSnoop {}{E.~Accomando {et~al.}, ``{Workshop on CP studies and
  non-standard Higgs physics}'',} (2006).
\href{http://www.arXiv.org/abs/hep-ph/0608079}{\texttt{ arXiv:hep-ph/0608079}}.
%%CITATION = HEP-PH/0608079;%%.

\bibitem{Godbole:2007cn}
\hrefCMSnoop {}{R.~M. Godbole, D.~J. Miller, and M.~M. M{\" u}hlleitner,
  ``{Aspects of CP violation in the HZZ coupling at the LHC}'',} \textit{ JHEP}
  \textbf{ 12} (2007) 031,
  \href{http://dx.doi.org/10.1088/1126-6708/2007/12/031}{\doi{10.1088/1126-6708/2007/12/031}},
\href{http://www.arXiv.org/abs/0708.0458}{\texttt{ arXiv:0708.0458}}.
%%CITATION = ARXIV:0708.0458;%%.

\bibitem{Hagiwara:2009wt}
\hrefCMSnoop {}{K.~Hagiwara, Q.~Li, and K.~Mawatari, ``{Jet angular correlation
  in vector-boson fusion processes at hadron colliders}'',} \textit{ JHEP}
  \textbf{ 07} (2009) 101,
  \href{http://dx.doi.org/10.1088/1126-6708/2009/07/101}{\doi{10.1088/1126-6708/2009/07/101}},
\href{http://www.arXiv.org/abs/0905.4314}{\texttt{ arXiv:0905.4314}}.
%%CITATION = ARXIV:0905.4314;%%.

\bibitem{DeRujula:2010ys}
A.~De~R{\' u}jula\hrefCMSnoop {}{ {et~al.}, ``{Higgs look-alikes at the
  LHC}'',} \textit{ Phys. Rev. D} \textbf{ 82} (2010) 013003,
  \href{http://dx.doi.org/10.1103/PhysRevD.82.013003}{\doi{10.1103/PhysRevD.82.013003}},
\href{http://www.arXiv.org/abs/1001.5300}{\texttt{ arXiv:1001.5300}}.
%%CITATION = ARXIV:1001.5300;%%.

\bibitem{Christensen:2010pf}
\hrefCMSnoop {}{N.~D. Christensen, T.~Han, and Y.~Li, ``{Testing CP Violation
  in ZZH Interactions at the LHC}'',} \textit{ Phys. Lett. B} \textbf{ 693}
  (2010) 28,
  \href{http://dx.doi.org/10.1016/j.physletb.2010.08.008}{\doi{10.1016/j.physletb.2010.08.008}},
\href{http://www.arXiv.org/abs/1005.5393}{\texttt{ arXiv:1005.5393}}.
%%CITATION = ARXIV:1005.5393;%%.

\bibitem{Ellis:2012xd}
\hrefCMSnoop {}{J.~Ellis, D.~S. Hwang, V.~Sanz, and T.~You, ``{A fast track
  towards the `Higgs' spin and parity}'',} \textit{ JHEP} \textbf{ 11} (2012)
  134,
  \href{http://dx.doi.org/10.1007/JHEP11(2012)134}{\doi{10.1007/JHEP11(2012)134}},
\href{http://www.arXiv.org/abs/1208.6002}{\texttt{ arXiv:1208.6002}}.
%%CITATION = ARXIV:1208.6002;%%.

\bibitem{Chen:2012jy}
\hrefCMSnoop {}{Y.~Chen, N.~Tran, and R.~Vega-Morales, ``{Scrutinizing the
  Higgs signal and background in the $2e2\mu$ golden channel}'',} \textit{
  JHEP} \textbf{ 01} (2013) 182,
  \href{http://dx.doi.org/10.1007/JHEP01(2013)182}{\doi{10.1007/JHEP01(2013)182}},
\href{http://www.arXiv.org/abs/1211.1959}{\texttt{ arXiv:1211.1959}}.
%%CITATION = ARXIV:1211.1959;%%.

\bibitem{Artoisenet:2013puc}
P.~Artoisenet\hrefCMSnoop {}{ {et~al.}, ``{A framework for Higgs
  characterisation}'',} \textit{ JHEP} \textbf{ 11} (2013) 043,
  \href{http://dx.doi.org/10.1007/JHEP11(2013)043}{\doi{10.1007/JHEP11(2013)043}},
\href{http://www.arXiv.org/abs/1306.6464}{\texttt{ arXiv:1306.6464}}.
%%CITATION = ARXIV:1306.6464;%%.

\bibitem{Chen:2013waa}
M.~Chen\hrefCMSnoop {}{ {et~al.}, ``{Role of interference in unraveling the ZZ
  couplings of the newly discovered boson at the LHC}'',} \textit{ Phys. Rev.
  D} \textbf{ 89} (2014) 034002,
  \href{http://dx.doi.org/10.1103/PhysRevD.89.034002}{\doi{10.1103/PhysRevD.89.034002}},
\href{http://www.arXiv.org/abs/1310.1397}{\texttt{ arXiv:1310.1397}}.
%%CITATION = ARXIV:1310.1397;%%.

\bibitem{Maltoni:2013sma}
\hrefCMSnoop {}{F.~Maltoni, K.~Mawatari, and M.~Zaro, ``{Higgs characterisation
  via vector-boson fusion and associated production: NLO and parton-shower
  effects}'',} \textit{ Eur. Phys. J. C} \textbf{ 74} (2014) 2710,
  \href{http://dx.doi.org/10.1140/epjc/s10052-013-2710-5}{\doi{10.1140/epjc/s10052-013-2710-5}},
\href{http://www.arXiv.org/abs/1311.1829}{\texttt{ arXiv:1311.1829}}.
%%CITATION = ARXIV:1311.1829;%%.

\bibitem{Azatov:2014jga}
\hrefCMSnoop {}{A.~Azatov, C.~Grojean, A.~Paul, and E.~Salvioni, ``{Taming the
  off-shell Higgs boson}'',} \textit{ Zh. Eksp. Teor. Fiz.} \textbf{ 147}
  (2015) 410--425, \href{http://dx.doi.org/10.1134/S1063776115030140,
  10.7868/S0044451015030039}{\doi{10.1134/S1063776115030140,
  10.7868/S0044451015030039}},
  \href{http://www.arXiv.org/abs/1406.6338}{\texttt{ arXiv:1406.6338}}.
[J. Exp. Theor. Phys.120,354(2015)].
%%CITATION = ARXIV:1406.6338;%%.

\bibitem{Cacciapaglia:2014rla}
\hrefCMSnoop {}{G.~Cacciapaglia, A.~Deandrea, G.~Drieu La~Rochelle, and J.-B.
  Flament, ``{Higgs couplings: disentangling New Physics with off-shell
  measurements}'',} \textit{ Phys. Rev. Lett.} \textbf{ 113} (2014) 201802,
  \href{http://dx.doi.org/10.1103/PhysRevLett.113.201802}{\doi{10.1103/PhysRevLett.113.201802}},
\href{http://www.arXiv.org/abs/1406.1757}{\texttt{ arXiv:1406.1757}}.
%%CITATION = ARXIV:1406.1757;%%.

\bibitem{Denner:2014cla}
\hrefCMSnoop {}{A.~Denner, S.~Dittmaier, S.~Kallweit, and A.~M{\"u}ck, ``{HAWK
  2.0: A Monte Carlo program for Higgs production in vector-boson fusion and
  Higgs strahlung at hadron colliders}'',} \textit{ Comput. Phys. Commun.}
  \textbf{ 195} (2015) 161--171,
  \href{http://dx.doi.org/10.1016/j.cpc.2015.04.021}{\doi{10.1016/j.cpc.2015.04.021}},
\href{http://www.arXiv.org/abs/1412.5390}{\texttt{ arXiv:1412.5390}}.
%%CITATION = ARXIV:1412.5390;%%.

\bibitem{Dolan:2014upa}
\hrefCMSnoop {}{M.~J. Dolan, P.~Harris, M.~Jankowiak, and M.~Spannowsky,
  ``{Constraining $CP$-violating Higgs sectors at the LHC using gluon
  fusion}'',} \textit{ Phys. Rev. D} \textbf{ 90} (2014) 073008,
  \href{http://dx.doi.org/10.1103/PhysRevD.90.073008}{\doi{10.1103/PhysRevD.90.073008}},
\href{http://www.arXiv.org/abs/1406.3322}{\texttt{ arXiv:1406.3322}}.
%%CITATION = ARXIV:1406.3322;%h.

\bibitem{Englert:2014ffa}
\hrefCMSnoop {}{C.~Englert, Y.~Soreq, and M.~Spannowsky, ``{Off-Shell Higgs
  Coupling Measurements in BSM scenarios}'',} \textit{ JHEP} \textbf{ 05}
  (2015) 145,
  \href{http://dx.doi.org/10.1007/JHEP05(2015)145}{\doi{10.1007/JHEP05(2015)145}},
\href{http://www.arXiv.org/abs/1410.5440}{\texttt{ arXiv:1410.5440}}.
%%CITATION = ARXIV:1410.5440;%%.

\bibitem{Gonzalez-Alonso:2014eva}
\hrefCMSnoop {}{M.~Gonzalez-Alonso, A.~Greljo, G.~Isidori, and D.~Marzocca,
  ``{Pseudo-observables in Higgs decays}'',} \textit{ Eur. Phys. J. C} \textbf{
  75} (2015) 128,
  \href{http://dx.doi.org/10.1140/epjc/s10052-015-3345-5}{\doi{10.1140/epjc/s10052-015-3345-5}},
\href{http://www.arXiv.org/abs/1412.6038}{\texttt{ arXiv:1412.6038}}.
%%CITATION = ARXIV:1412.6038;%%.

\bibitem{Ballestrero:2015jca}
\hrefCMSnoop {}{A.~Ballestrero and E.~Maina, ``{Interference Effects in Higgs
  production through Vector Boson Fusion in the Standard Model and its Singlet
  Extension}'',} \textit{ JHEP} \textbf{ 01} (2016) 045,
  \href{http://dx.doi.org/10.1007/JHEP01(2016)045}{\doi{10.1007/JHEP01(2016)045}},
\href{http://www.arXiv.org/abs/1506.02257}{\texttt{ arXiv:1506.02257}}.
%%CITATION = ARXIV:1506.02257;%%.

\bibitem{Greljo:2015sla}
\hrefCMSnoop {}{A.~Greljo, G.~Isidori, J.~M. Lindert, and D.~Marzocca,
  ``{Pseudo-observables in electroweak Higgs production}'',} \textit{ Eur.
  Phys. J. C} \textbf{ 76} (2016) 158,
  \href{http://dx.doi.org/10.1140/epjc/s10052-016-4000-5}{\doi{10.1140/epjc/s10052-016-4000-5}},
\href{http://www.arXiv.org/abs/1512.06135}{\texttt{ arXiv:1512.06135}}.
%%CITATION = ARXIV:1512.06135;%%.

\bibitem{Hespel:2015zea}
\hrefCMSnoop {}{B.~Hespel, F.~Maltoni, and E.~Vryonidou, ``{Higgs and Z boson
  associated production via gluon fusion in the SM and the 2HDM}'',} \textit{
  JHEP} \textbf{ 06} (2015) 065,
  \href{http://dx.doi.org/10.1007/JHEP06(2015)065}{\doi{10.1007/JHEP06(2015)065}},
\href{http://www.arXiv.org/abs/1503.01656}{\texttt{ arXiv:1503.01656}}.
%%CITATION = ARXIV:1503.01656;%%.

\bibitem{Kauer:2015dma}
\hrefCMSnoop {}{N.~Kauer, C.~O'Brien, and E.~Vryonidou, ``{Interference effects
  for $ H\to W\;W\to \ell \nu q{\overline{q}}^{\prime } $ and $ H\to ZZ\to \ell
  \overline{\ell}q\overline{q} $ searches in gluon fusion at the LHC}'',}
  \textit{ JHEP} \textbf{ 10} (2015) 074,
  \href{http://dx.doi.org/10.1007/JHEP10(2015)074}{\doi{10.1007/JHEP10(2015)074}},
\href{http://www.arXiv.org/abs/1506.01694}{\texttt{ arXiv:1506.01694}}.
%%CITATION = ARXIV:1506.01694;%%.

\bibitem{Kauer:2015hia}
\hrefCMSnoop {}{N.~Kauer and C.~O'Brien, ``{Heavy Higgs signal–background
  interference in $gg\rightarrow VV$ in the Standard Model plus real
  singlet}'',} \textit{ Eur. Phys. J. C} \textbf{ 75} (2015) 374,
  \href{http://dx.doi.org/10.1140/epjc/s10052-015-3586-3}{\doi{10.1140/epjc/s10052-015-3586-3}},
\href{http://www.arXiv.org/abs/1502.04113}{\texttt{ arXiv:1502.04113}}.
%%CITATION = ARXIV:1502.04113;%%.

\bibitem{Kilian:2015opv}
\hrefCMSnoop {}{W.~Kilian, T.~Ohl, J.~Reuter, and M.~Sekulla, ``{Resonances at
  the LHC beyond the Higgs boson: The scalar/tensor case}'',} \textit{ Phys.
  Rev. D} \textbf{ 93} (2016) 036004,
  \href{http://dx.doi.org/10.1103/PhysRevD.93.036004}{\doi{10.1103/PhysRevD.93.036004}},
\href{http://www.arXiv.org/abs/1511.00022}{\texttt{ arXiv:1511.00022}}.
%%CITATION = ARXIV:1511.00022;%%.

\bibitem{Mimasu:2015nqa}
\hrefCMSnoop {}{K.~Mimasu, V.~Sanz, and C.~Williams, ``{Higher Order QCD
  predictions for Associated Higgs production with anomalous couplings to gauge
  bosons}'',} \textit{ JHEP} \textbf{ 08} (2016) 039,
  \href{http://dx.doi.org/10.1007/JHEP08(2016)039}{\doi{10.1007/JHEP08(2016)039}},
\href{http://www.arXiv.org/abs/1512.02572}{\texttt{ arXiv:1512.02572}}.
%%CITATION = ARXIV:1512.02572;%%.

\bibitem{Degrande:2016dqg}
C.~Degrande\hrefCMSnoop {}{ {et~al.}, ``{Electroweak Higgs boson production in
  the standard model effective field theory beyond leading order in QCD}'',}
  \textit{ Eur. Phys. J. C} \textbf{ 77} (2017) 262,
  \href{http://dx.doi.org/10.1140/epjc/s10052-017-4793-x}{\doi{10.1140/epjc/s10052-017-4793-x}},
\href{http://www.arXiv.org/abs/1609.04833}{\texttt{ arXiv:1609.04833}}.
%%CITATION = ARXIV:1609.04833;%%.

\bibitem{Dwivedi:2016xwm}
\hrefCMSnoop {}{S.~Dwivedi, D.~K. Ghosh, B.~Mukhopadhyaya, and A.~Shivaji,
  ``{Distinguishing $CP$-odd couplings of the Higgs boson to weak boson
  pairs}'',} \textit{ Phys. Rev. D} \textbf{ 93} (2016) 115039,
  \href{http://dx.doi.org/10.1103/PhysRevD.93.115039}{\doi{10.1103/PhysRevD.93.115039}},
\href{http://www.arXiv.org/abs/1603.06195}{\texttt{ arXiv:1603.06195}}.
%%CITATION = ARXIV:1603.06195;%%.

\bibitem{deFlorian:2016spz}
\hrefCMSnoop {}{{LHC Higgs Cross Section Working Group} Collaboration,
  ``{Handbook of LHC Higgs Cross Sections: 4. Deciphering the Nature of the
  Higgs Sector}'',}
  \href{http://dx.doi.org/10.23731/CYRM-2017-002}{\doi{10.23731/CYRM-2017-002}},
\href{http://www.arXiv.org/abs/1610.07922}{\texttt{ arXiv:1610.07922}}.
%%CITATION = ARXIV:1610.07922;%%.

\bibitem{Azatov:2016xik}
\hrefCMSnoop {}{A.~Azatov, C.~Grojean, A.~Paul, and E.~Salvioni, ``{Resolving
  gluon fusion loops at current and future hadron colliders}'',} \textit{ JHEP}
  \textbf{ 09} (2016) 123,
  \href{http://dx.doi.org/10.1007/JHEP09(2016)123}{\doi{10.1007/JHEP09(2016)123}},
\href{http://www.arXiv.org/abs/1608.00977}{\texttt{ arXiv:1608.00977}}.
%%CITATION = ARXIV:1608.00977;%%.

\bibitem{Denner:2017vms}
\hrefCMSnoop {}{A.~Denner, J.-N. Lang, and S.~Uccirati, ``{NLO electroweak
  corrections in extended Higgs Sectors with RECOLA2}'',} \textit{ JHEP}
  \textbf{ 07} (2017) 087,
  \href{http://dx.doi.org/10.1007/JHEP07(2017)087}{\doi{10.1007/JHEP07(2017)087}},
\href{http://www.arXiv.org/abs/1705.06053}{\texttt{ arXiv:1705.06053}}.
%%CITATION = ARXIV:1705.06053;%%.

\bibitem{Deutschmann:2017qum}
\hrefCMSnoop {}{N.~Deutschmann, C.~Duhr, F.~Maltoni, and E.~Vryonidou,
  ``{Gluon-fusion Higgs production in the Standard Model Effective Field
  Theory}'',} \textit{ JHEP} \textbf{ 12} (2017) 063,
  \href{http://dx.doi.org/10.1007/JHEP12(2017)063,
  10.1007/JHEP02(2018)159}{\doi{10.1007/JHEP12(2017)063,
  10.1007/JHEP02(2018)159}},
  \href{http://www.arXiv.org/abs/1708.00460}{\texttt{ arXiv:1708.00460}}.
[Erratum: JHEP02,159(2018)].
%%CITATION = ARXIV:1708.00460;%%.

\bibitem{Greljo:2017spw}
A.~Greljo\hrefCMSnoop {}{ {et~al.}, ``{Electroweak Higgs production with
  HiggsPO at NLO QCD}'',} \textit{ Eur. Phys. J. C} \textbf{ 77} (2017) 838,
  \href{http://dx.doi.org/10.1140/epjc/s10052-017-5422-4}{\doi{10.1140/epjc/s10052-017-5422-4}},
\href{http://www.arXiv.org/abs/1710.04143}{\texttt{ arXiv:1710.04143}}.
%%CITATION = ARXIV:1710.04143;%%.

\bibitem{Goncalves:2017gzy}
\hrefCMSnoop {}{D.~Goncalves, T.~Plehn, and J.~M. Thompson, ``{Weak boson
  fusion at 100 TeV}'',} \textit{ Phys. Rev. D} \textbf{ 95} (2017) 095011,
  \href{http://dx.doi.org/10.1103/PhysRevD.95.095011}{\doi{10.1103/PhysRevD.95.095011}},
\href{http://www.arXiv.org/abs/1702.05098}{\texttt{ arXiv:1702.05098}}.
%%CITATION = ARXIV:1702.05098;%%.

\bibitem{Jager:2017owh}
\hrefCMSnoop {}{B.~J{\"a}ger, L.~Salfelder, M.~Worek, and D.~Zeppenfeld,
  ``{Physics opportunities for vector-boson scattering at a future 100 TeV
  hadron collider}'',} \textit{ Phys. Rev. D} \textbf{ 96} (2017) 073008,
  \href{http://dx.doi.org/10.1103/PhysRevD.96.073008}{\doi{10.1103/PhysRevD.96.073008}},
\href{http://www.arXiv.org/abs/1704.04911}{\texttt{ arXiv:1704.04911}}.
%%CITATION = ARXIV:1704.04911;%%.

\bibitem{Brass:2018hfw}
S.~Brass\hrefCMSnoop {}{ {et~al.}, ``{Transversal Modes and Higgs Bosons in
  Electroweak Vector-Boson Scattering at the LHC}'',} \textit{ Eur. Phys. J. C}
  \textbf{ 78} (2018) 931,
  \href{http://dx.doi.org/10.1140/epjc/s10052-018-6398-4}{\doi{10.1140/epjc/s10052-018-6398-4}},
\href{http://www.arXiv.org/abs/1807.02512}{\texttt{ arXiv:1807.02512}}.
%%CITATION = ARXIV:1807.02512;%%.

\bibitem{Gomez-Ambrosio:2018pnl}
\hrefCMSnoop {}{R.~Gomez-Ambrosio, ``{Studies of Dimension-Six EFT effects in
  Vector Boson Scattering}'',} \textit{ Eur. Phys. J. C} \textbf{ 79} (2019)
  389,
  \href{http://dx.doi.org/10.1140/epjc/s10052-019-6893-2}{\doi{10.1140/epjc/s10052-019-6893-2}},
\href{http://www.arXiv.org/abs/1809.04189}{\texttt{ arXiv:1809.04189}}.
%%CITATION = ARXIV:1809.04189;%%.

\bibitem{Goncalves:2018pkt}
\hrefCMSnoop {}{D.~Gonçalves, T.~Han, and S.~Mukhopadhyay, ``{Higgs Couplings
  at High Scales}'',} \textit{ Phys. Rev. D} \textbf{ 98} (2018) 015023,
  \href{http://dx.doi.org/10.1103/PhysRevD.98.015023}{\doi{10.1103/PhysRevD.98.015023}},
\href{http://www.arXiv.org/abs/1803.09751}{\texttt{ arXiv:1803.09751}}.
%%CITATION = ARXIV:1803.09751;%%.

\bibitem{Harlander:2018yns}
\hrefCMSnoop {}{R.~V. Harlander, J.~Klappert, C.~Pandini, and
  A.~Papaefstathiou, ``{Exploiting the WH/ZH symmetry in the search for New
  Physics}'',} \textit{ Eur. Phys. J. C} \textbf{ 78} (2018) 760,
  \href{http://dx.doi.org/10.1140/epjc/s10052-018-6234-x}{\doi{10.1140/epjc/s10052-018-6234-x}},
\href{http://www.arXiv.org/abs/1804.02299}{\texttt{ arXiv:1804.02299}}.
%%CITATION = ARXIV:1804.02299;%%.

\bibitem{Harlander:2018yio}
\hrefCMSnoop {}{R.~V. Harlander, J.~Klappert, S.~Liebler, and L.~Simon,
  ``{vh@nnlo-v2: New physics in Higgs Strahlung}'',} \textit{ JHEP} \textbf{
  05} (2018) 089,
  \href{http://dx.doi.org/10.1007/JHEP05(2018)089}{\doi{10.1007/JHEP05(2018)089}},
\href{http://www.arXiv.org/abs/1802.04817}{\texttt{ arXiv:1802.04817}}.
%%CITATION = ARXIV:1802.04817;%%.

\bibitem{Lee:2018fxj}
\hrefCMSnoop {}{S.~J. Lee, M.~Park, and Z.~Qian, ``{Probing unitarity violation
  in the tail of the off-shell Higgs boson in $V_LV_L$ mode}'',} \textit{ Phys.
  Rev. D} \textbf{ 100} (2019) 011702,
  \href{http://dx.doi.org/10.1103/PhysRevD.100.011702}{\doi{10.1103/PhysRevD.100.011702}},
\href{http://www.arXiv.org/abs/1812.02679}{\texttt{ arXiv:1812.02679}}.
%%CITATION = ARXIV:1812.02679;%%.

\bibitem{Kalinowski:2018oxd}
J.~Kalinowski\hrefCMSnoop {}{ {et~al.}, ``{Same-sign WW scattering at the LHC:
  can we discover BSM effects before discovering new states?}'',} \textit{ Eur.
  Phys. J. C} \textbf{ 78} (2018) 403,
  \href{http://dx.doi.org/10.1140/epjc/s10052-018-5885-y}{\doi{10.1140/epjc/s10052-018-5885-y}},
\href{http://www.arXiv.org/abs/1802.02366}{\texttt{ arXiv:1802.02366}}.
%%CITATION = ARXIV:1802.02366;%%.

\bibitem{Perez:2018kav}
\hrefCMSnoop {}{G.~Perez, M.~Sekulla, and D.~Zeppenfeld, ``{Anomalous quartic
  gauge couplings and unitarization for the vector boson scattering process
  $pp\rightarrow W^+W^+jjX\rightarrow \ell ^+\nu _\ell \ell ^+\nu _\ell
  jjX$}'',} \textit{ Eur. Phys. J. C} \textbf{ 78} (2018) 759,
  \href{http://dx.doi.org/10.1140/epjc/s10052-018-6230-1}{\doi{10.1140/epjc/s10052-018-6230-1}},
\href{http://www.arXiv.org/abs/1807.02707}{\texttt{ arXiv:1807.02707}}.
%%CITATION = ARXIV:1807.02707;%%.

\bibitem{Jaquier:2019bfs}
\hrefCMSnoop {}{M.~Jaquier and R.~R{\"o}ntsch, ``{Mixed scalar-pseudoscalar Higgs
  boson production through next-to-next-to-leading order at the LHC}'',}
  \textit{ JHEP} \textbf{ 06} (2020) 005,
  \href{http://dx.doi.org/10.1007/JHEP06(2020)005}{\doi{10.1007/JHEP06(2020)005}},
\href{http://www.arXiv.org/abs/1911.10631}{\texttt{ arXiv:1911.10631}}.
%%CITATION = ARXIV:1911.10631;%%.

\bibitem{Denner:2019fcr}
\hrefCMSnoop {}{A.~Denner, S.~Dittmaier, and A.~M{\"u}ck, ``{PROPHECY4F 3.0: A
  Monte Carlo program for Higgs-boson decays into four-fermion final states in
  and beyond the Standard Model}'',} \textit{ Comput. Phys. Commun.} \textbf{
  254} (2020) 107336,
  \href{http://dx.doi.org/10.1016/j.cpc.2020.107336}{\doi{10.1016/j.cpc.2020.107336}},
\href{http://www.arXiv.org/abs/1912.02010}{\texttt{ arXiv:1912.02010}}.
%%CITATION = ARXIV:1912.02010;%%.

\bibitem{Banerjee:2019twi}
S.~Banerjee\hrefCMSnoop {}{ {et~al.}, ``{Towards the ultimate differential
  SMEFT analysis}'',}
\href{http://www.arXiv.org/abs/1912.07628}{\texttt{ arXiv:1912.07628}}.
%%CITATION = ARXIV:1912.07628;%%.

\bibitem{Chatrchyan:2012xdj}
\hrefCMSnoop {}{{CMS} Collaboration, ``{Observation of a new boson at a mass of
  125 GeV with the CMS experiment at the LHC}'',} \textit{ Phys. Lett. B}
  \textbf{ 716} (2012) 30--61,
  \href{http://dx.doi.org/10.1016/j.physletb.2012.08.021}{\doi{10.1016/j.physletb.2012.08.021}},
\href{http://www.arXiv.org/abs/1207.7235}{\texttt{ arXiv:1207.7235}}.
%%CITATION = ARXIV:1207.7235;%%.

\bibitem{Chatrchyan:2012jja}
\hrefCMSnoop {}{{CMS} Collaboration, ``{Study of the Mass and Spin-Parity of
  the Higgs Boson Candidate Via Its Decays to Z Boson Pairs}'',} \textit{ Phys.
  Rev. Lett.} \textbf{ 110} (2013) 081803,
  \href{http://dx.doi.org/10.1103/PhysRevLett.110.081803}{\doi{10.1103/PhysRevLett.110.081803}},
\href{http://www.arXiv.org/abs/1212.6639}{\texttt{ arXiv:1212.6639}}.
%%CITATION = ARXIV:1212.6639;%%.

\bibitem{Chatrchyan:2013mxa}
\hrefCMSnoop {}{{CMS} Collaboration, ``{Measurement of the properties of a
  Higgs boson in the four-lepton final state}'',} \textit{ Phys. Rev. D}
  \textbf{ 89} (2014) 092007,
  \href{http://dx.doi.org/10.1103/PhysRevD.89.092007}{\doi{10.1103/PhysRevD.89.092007}},
\href{http://www.arXiv.org/abs/1312.5353}{\texttt{ arXiv:1312.5353}}.
%%CITATION = ARXIV:1312.5353;%%.

\bibitem{Chatrchyan:2013iaa}
\hrefCMSnoop {}{{CMS} Collaboration, ``{Measurement of Higgs boson production
  and properties in the WW decay channel with leptonic final states}'',}
  \textit{ JHEP} \textbf{ 01} (2014) 096,
  \href{http://dx.doi.org/10.1007/JHEP01(2014)096}{\doi{10.1007/JHEP01(2014)096}},
\href{http://www.arXiv.org/abs/1312.1129}{\texttt{ arXiv:1312.1129}}.
%%CITATION = ARXIV:1312.1129;%%.

\bibitem{Aad:2013xqa}
\hrefCMSnoop {}{{ATLAS} Collaboration, ``{Evidence for the spin-0 nature of the
  Higgs boson using ATLAS data}'',} \textit{ Phys. Lett. B} \textbf{ 726}
  (2013) 120--144,
  \href{http://dx.doi.org/10.1016/j.physletb.2013.08.026}{\doi{10.1016/j.physletb.2013.08.026}},
\href{http://www.arXiv.org/abs/1307.1432}{\texttt{ arXiv:1307.1432}}.
%%CITATION = ARXIV:1307.1432;%%.

\bibitem{Khachatryan:2014iha}
\hrefCMSnoop {}{{CMS} Collaboration, ``{Constraints on the Higgs boson width
  from off-shell production and decay to Z-boson pairs}'',} \textit{ Phys.
  Lett. B} \textbf{ 736} (2014) 64,
  \href{http://dx.doi.org/10.1016/j.physletb.2014.06.077}{\doi{10.1016/j.physletb.2014.06.077}},
\href{http://www.arXiv.org/abs/1405.3455}{\texttt{ arXiv:1405.3455}}.
%%CITATION = ARXIV:1405.3455;%%.

\bibitem{Khachatryan:2014ira}
\hrefCMSnoop {}{{CMS} Collaboration, ``{Observation of the diphoton decay of
  the Higgs boson and measurement of its properties}'',} \textit{ Eur. Phys. J.
  C} \textbf{ 74} (2014) 3076,
  \href{http://dx.doi.org/10.1140/epjc/s10052-014-3076-z}{\doi{10.1140/epjc/s10052-014-3076-z}},
\href{http://www.arXiv.org/abs/1407.0558}{\texttt{ arXiv:1407.0558}}.
%%CITATION = ARXIV:1407.0558;%%.

\bibitem{Khachatryan:2014kca}
\hrefCMSnoop {}{{CMS} Collaboration, ``{Constraints on the spin-parity and
  anomalous HVV couplings of the Higgs boson in proton collisions at 7 and 8
  TeV}'',} \textit{ Phys. Rev. D} \textbf{ 92} (2015) 012004,
  \href{http://dx.doi.org/10.1103/PhysRevD.92.012004}{\doi{10.1103/PhysRevD.92.012004}},
\href{http://www.arXiv.org/abs/1411.3441}{\texttt{ arXiv:1411.3441}}.
%%CITATION = ARXIV:1411.3441;%%.

\bibitem{Khachatryan:2015mma}
\hrefCMSnoop {}{{CMS} Collaboration, ``{Limits on the Higgs boson lifetime and
  width from its decay to four charged leptons}'',} \textit{ Phys. Rev. D}
  \textbf{ 92} (2015) 072010,
  \href{http://dx.doi.org/10.1103/PhysRevD.92.072010}{\doi{10.1103/PhysRevD.92.072010}},
\href{http://www.arXiv.org/abs/1507.06656}{\texttt{ arXiv:1507.06656}}.
%%CITATION = ARXIV:1507.06656;%%.

\bibitem{Khachatryan:2015cwa}
\hrefCMSnoop {}{{CMS} Collaboration, ``{Search for a Higgs boson in the mass
  range from 145 to 1000 GeV decaying to a pair of W or Z bosons}'',} \textit{
  JHEP} \textbf{ 10} (2015) 144,
  \href{http://dx.doi.org/10.1007/JHEP10(2015)144}{\doi{10.1007/JHEP10(2015)144}},
\href{http://www.arXiv.org/abs/1504.00936}{\texttt{ arXiv:1504.00936}}.
%%CITATION = ARXIV:1504.00936;%%.

\bibitem{Aad:2015mxa}
\hrefCMSnoop {}{{ATLAS} Collaboration, ``{Study of the spin and parity of the
  Higgs boson in diboson decays with the ATLAS detector}'',} \textit{ Eur.
  Phys. J. C} \textbf{ 75} (2015) 476,
  \href{http://dx.doi.org/10.1140/epjc/s10052-015-3685-1}{\doi{10.1140/epjc/s10052-015-3685-1}},
\href{http://www.arXiv.org/abs/1506.05669}{\texttt{ arXiv:1506.05669}}.
%%CITATION = ARXIV:1506.05669;%%.

\bibitem{Khachatryan:2016tnr}
\hrefCMSnoop {}{{CMS} Collaboration, ``{Combined search for anomalous
  pseudoscalar HVV couplings in VH(H $\to \text{b}\bar{\text{b}}$) production
  and H $\to$ VV decay}'',} \textit{ Phys. Lett. B} \textbf{ 759} (2016) 672,
  \href{http://dx.doi.org/10.1016/j.physletb.2016.06.004}{\doi{10.1016/j.physletb.2016.06.004}},
\href{http://www.arXiv.org/abs/1602.04305}{\texttt{ arXiv:1602.04305}}.
%%CITATION = ARXIV:1602.04305;%%.

\bibitem{Sirunyan:2017tqd}
\hrefCMSnoop {}{{CMS} Collaboration, ``{Constraints on anomalous Higgs boson
  couplings using production and decay information in the four-lepton final
  state}'',} \textit{ Phys. Lett. B} \textbf{ 775} (2017) 1,
  \href{http://dx.doi.org/10.1016/j.physletb.2017.10.021}{\doi{10.1016/j.physletb.2017.10.021}},
\href{http://www.arXiv.org/abs/1707.00541}{\texttt{ arXiv:1707.00541}}.
%%CITATION = ARXIV:1707.00541;%%.

\bibitem{Sirunyan:2019nbs}
\hrefCMSnoop {}{{CMS} Collaboration, ``{Constraints on anomalous $HVV$
  couplings from the production of Higgs bosons decaying to $\tau$ lepton
  pairs}'',} \textit{ Phys. Rev. D} \textbf{ 100} (2019) 112002,
  \href{http://dx.doi.org/10.1103/PhysRevD.100.112002}{\doi{10.1103/PhysRevD.100.112002}},
\href{http://www.arXiv.org/abs/1903.06973}{\texttt{ arXiv:1903.06973}}.
%%CITATION = ARXIV:1903.06973;%%.

\bibitem{Sirunyan:2019twz}
\hrefCMSnoop {}{{CMS} Collaboration, ``{Measurements of the Higgs boson width
  and anomalous HVV couplings from on-shell and off-shell production in the
  four-lepton final state}'',} \textit{ Phys. Rev. D} \textbf{ 99} (2019)
  112003,
  \href{http://dx.doi.org/10.1103/PhysRevD.99.112003}{\doi{10.1103/PhysRevD.99.112003}},
\href{http://www.arXiv.org/abs/1901.00174}{\texttt{ arXiv:1901.00174}}.
%%CITATION = ARXIV:1901.00174;%%.

\bibitem{Sirunyan:2020sum}
\hrefCMSnoop {}{{CMS} Collaboration, ``{Measurements of $\mathrm{t\bar{t}}$H
  production and the CP structure of the Yukawa interaction between the Higgs
  boson and top quark in the diphoton decay channel}'',} \textit{ Phys. Rev.
  Lett.} \textbf{ 125} (2020) 061801,
  \href{http://dx.doi.org/10.1103/PhysRevLett.125.061801}{\doi{10.1103/PhysRevLett.125.061801}},
\href{http://www.arXiv.org/abs/2003.10866}{\texttt{ arXiv:2003.10866}}.
%%CITATION = ARXIV:2003.10866;%%.

\bibitem{Sirunyan:2018qlb}
\hrefCMSnoop {}{{CMS} Collaboration, ``{Search for a new scalar resonance
  decaying to a pair of Z bosons in proton-proton collisions at $\sqrt{s}=13$
  TeV}'',} \textit{ JHEP} \textbf{ 06} (2018) 127,
  \href{http://dx.doi.org/10.1007/JHEP06(2018)127,
  10.1007/JHEP03(2019)128}{\doi{10.1007/JHEP06(2018)127,
  10.1007/JHEP03(2019)128}},
  \href{http://www.arXiv.org/abs/1804.01939}{\texttt{ arXiv:1804.01939}}.
[Erratum: JHEP03,128(2019)].
%%CITATION = ARXIV:1804.01939;%%.

\bibitem{Sirunyan:2019pqw}
\hrefCMSnoop {}{{CMS} Collaboration, ``{Search for a heavy Higgs boson decaying
  to a pair of W bosons in proton-proton collisions at $\sqrt{s} =$ 13 TeV}'',}
\href{http://www.arXiv.org/abs/1912.01594}{\texttt{ arXiv:1912.01594}}.
%%CITATION = ARXIV:1912.01594;%%.

\bibitem{Cepeda:2019klc}
\hrefCMSnoop {}{M.~Cepeda {et~al.}, ``{Higgs Physics at the HL-LHC and
  HE-LHC}'',} \textit{ CERN Yellow Rep. Monogr.} \textbf{ 7} (2019) 221--584,
  \href{http://dx.doi.org/10.23731/CYRM-2019-007.221}{\doi{10.23731/CYRM-2019-007.221}},
\href{http://www.arXiv.org/abs/1902.00134}{\texttt{ arXiv:1902.00134}}.
%%CITATION = ARXIV:1902.00134;%%.

\bibitem{Khachatryan:2016vau}
\hrefCMSnoop {}{{ATLAS, CMS} Collaboration, ``{Measurements of the Higgs boson
  production and decay rates and constraints on its couplings from a combined
  ATLAS and CMS analysis of the LHC pp collision data at $ \sqrt{s}=7 $ and 8
  TeV}'',} \textit{ JHEP} \textbf{ 08} (2016) 045,
  \href{http://dx.doi.org/10.1007/JHEP08(2016)045}{\doi{10.1007/JHEP08(2016)045}},
\href{http://www.arXiv.org/abs/1606.02266}{\texttt{ arXiv:1606.02266}}.
%%CITATION = ARXIV:1606.02266;%%.

\bibitem{Sirunyan:2018koj}
\hrefCMSnoop {}{{CMS} Collaboration, ``{Combined measurements of Higgs boson
  couplings in proton-proton collisions at $\sqrt{s}=13\,\text {Te}\text {V}
  $}'',} \textit{ Eur. Phys. J. C} \textbf{ 79} (2019) 421,
  \href{http://dx.doi.org/10.1140/epjc/s10052-019-6909-y}{\doi{10.1140/epjc/s10052-019-6909-y}},
\href{http://www.arXiv.org/abs/1809.10733}{\texttt{ arXiv:1809.10733}}.
%%CITATION = ARXIV:1809.10733;%%.

\bibitem{Aad:2019mbh}
\hrefCMSnoop {}{{ATLAS} Collaboration, ``{Combined measurements of Higgs boson
  production and decay using up to $80$ fb$^{-1}$ of proton-proton collision
  data at $\sqrt{s}=$ 13 TeV collected with the ATLAS experiment}'',} \textit{
  Phys. Rev. D} \textbf{ 101} (2020) 012002,
  \href{http://dx.doi.org/10.1103/PhysRevD.101.012002}{\doi{10.1103/PhysRevD.101.012002}},
\href{http://www.arXiv.org/abs/1909.02845}{\texttt{ arXiv:1909.02845}}.
%%CITATION = ARXIV:1909.02845;%%.

\bibitem{Sirunyan:2018kst}
\hrefCMSnoop {}{{CMS} Collaboration, ``{Observation of Higgs boson decay to
  bottom quarks}'',} \textit{ Phys. Rev. Lett.} \textbf{ 121} (2018) 121801,
  \href{http://dx.doi.org/10.1103/PhysRevLett.121.121801}{\doi{10.1103/PhysRevLett.121.121801}},
\href{http://www.arXiv.org/abs/1808.08242}{\texttt{ arXiv:1808.08242}}.
%%CITATION = ARXIV:1808.08242;%%.

\bibitem{Aaboud:2018zhk}
\hrefCMSnoop {}{{ATLAS} Collaboration, ``{Observation of $H \rightarrow
  b\bar{b}$ decays and $VH$ production with the ATLAS detector}'',} \textit{
  Phys. Lett. B} \textbf{ 786} (2018) 59--86,
  \href{http://dx.doi.org/10.1016/j.physletb.2018.09.013}{\doi{10.1016/j.physletb.2018.09.013}},
\href{http://www.arXiv.org/abs/1808.08238}{\texttt{ arXiv:1808.08238}}.
%%CITATION = ARXIV:1808.08238;%%.

\bibitem{Sirunyan:2018hoz}
\hrefCMSnoop {}{{CMS} Collaboration, ``{Observation of
  $\mathrm{t\overline{t}}$H production}'',} \textit{ Phys. Rev. Lett.} \textbf{
  120} (2018) 231801,
  \href{http://dx.doi.org/10.1103/PhysRevLett.120.231801}{\doi{10.1103/PhysRevLett.120.231801}},
\href{http://www.arXiv.org/abs/1804.02610}{\texttt{ arXiv:1804.02610}}.
%%CITATION = ARXIV:1804.02610;%%.

\bibitem{Aaboud:2018urx}
\hrefCMSnoop {}{{ATLAS} Collaboration, ``{Observation of Higgs boson production
  in association with a top quark pair at the LHC with the ATLAS detector}'',}
  \textit{ Phys. Lett. B} \textbf{ 784} (2018) 173--191,
  \href{http://dx.doi.org/10.1016/j.physletb.2018.07.035}{\doi{10.1016/j.physletb.2018.07.035}},
\href{http://www.arXiv.org/abs/1806.00425}{\texttt{ arXiv:1806.00425}}.
%%CITATION = ARXIV:1806.00425;%%.

\bibitem{Sirunyan:2017khh}
\hrefCMSnoop {}{{CMS} Collaboration, ``{Observation of the Higgs boson decay to
  a pair of $\tau$ leptons with the CMS detector}'',} \textit{ Phys. Lett. B}
  \textbf{ 779} (2018) 283--316,
  \href{http://dx.doi.org/10.1016/j.physletb.2018.02.004}{\doi{10.1016/j.physletb.2018.02.004}},
\href{http://www.arXiv.org/abs/1708.00373}{\texttt{ arXiv:1708.00373}}.
%%CITATION = ARXIV:1708.00373;%%.

\bibitem{Aaboud:2018pen}
\hrefCMSnoop {}{{ATLAS} Collaboration, ``{Cross-section measurements of the
  Higgs boson decaying into a pair of $\tau$-leptons in proton-proton
  collisions at $\sqrt{s}=13$ TeV with the ATLAS detector}'',} \textit{ Phys.
  Rev. D} \textbf{ 99} (2019) 072001,
  \href{http://dx.doi.org/10.1103/PhysRevD.99.072001}{\doi{10.1103/PhysRevD.99.072001}},
\href{http://www.arXiv.org/abs/1811.08856}{\texttt{ arXiv:1811.08856}}.
%%CITATION = ARXIV:1811.08856;%%.

\bibitem{jhugen}
\hrefCMSnoop {}{``{JHU generator}'',}. \url{http://spin.pha.jhu.edu/}.

\bibitem{Grzadkowski:2010es}
\hrefCMSnoop {}{B.~Grzadkowski, M.~Iskrzynski, M.~Misiak, and J.~Rosiek,
  ``{Dimension-Six Terms in the Standard Model Lagrangian}'',} \textit{ JHEP}
  \textbf{ 10} (2010) 085,
  \href{http://dx.doi.org/10.1007/JHEP10(2010)085}{\doi{10.1007/JHEP10(2010)085}},
\href{http://www.arXiv.org/abs/1008.4884}{\texttt{ arXiv:1008.4884}}.
%%CITATION = ARXIV:1008.4884;%%.

\bibitem{Falkowski:2001958}
\hrefCMSnoop {}{A.~Falkowski, ``{Higgs Basis: Proposal for an EFT basis choice
  for LHC HXSWG}'',} Technical Report LHCHXSWG-INT-2015-001, 2015.
\newblock \url{https://cds.cern.ch/record/2001958}.

\bibitem{Gonzalez-Alonso:2015bha}
\hrefCMSnoop {}{M.~Gonzalez-Alonso, A.~Greljo, G.~Isidori, and D.~Marzocca,
  ``{Electroweak bounds on Higgs pseudo-observables and $h \to 4 \ell$
  decays}'',} \textit{ Eur. Phys. J. C} \textbf{ 75} (2015) 341,
  \href{http://dx.doi.org/10.1140/epjc/s10052-015-3555-x}{\doi{10.1140/epjc/s10052-015-3555-x}},
\href{http://www.arXiv.org/abs/1504.04018}{\texttt{ arXiv:1504.04018}}.
%%CITATION = ARXIV:1504.04018;%%.

\bibitem{Alboteanu:2008my}
\hrefCMSnoop {}{A.~Alboteanu, W.~Kilian, and J.~Reuter, ``{Resonances and
  Unitarity in Weak Boson Scattering at the LHC}'',} \textit{ JHEP} \textbf{
  11} (2008) 010,
  \href{http://dx.doi.org/10.1088/1126-6708/2008/11/010}{\doi{10.1088/1126-6708/2008/11/010}},
\href{http://www.arXiv.org/abs/0806.4145}{\texttt{ arXiv:0806.4145}}.
%%CITATION = ARXIV:0806.4145;%%.

\bibitem{Kauer:2012hd}
\hrefCMSnoop {}{N.~Kauer and G.~Passarino, ``{Inadequacy of zero-width
  approximation for a light Higgs boson signal}'',} \textit{ JHEP} \textbf{ 08}
  (2012) 116,
  \href{http://dx.doi.org/10.1007/JHEP08(2012)116}{\doi{10.1007/JHEP08(2012)116}},
\href{http://www.arXiv.org/abs/1206.4803}{\texttt{ arXiv:1206.4803}}.
%%CITATION = ARXIV:1206.4803;%%.

\bibitem{Caola:2013yja}
\hrefCMSnoop {}{F.~Caola and K.~Melnikov, ``{Constraining the Higgs boson width
  with ZZ production at the LHC}'',} \textit{ Phys. Rev. D} \textbf{ 88} (2013)
  054024,
  \href{http://dx.doi.org/10.1103/PhysRevD.88.054024}{\doi{10.1103/PhysRevD.88.054024}},
\href{http://www.arXiv.org/abs/1307.4935}{\texttt{ arXiv:1307.4935}}.
%%CITATION = ARXIV:1307.4935;%%.

\bibitem{Djouadi:2018xqq}
\hrefCMSnoop {}{A.~Djouadi, J.~Kalinowski, M.~M{\"u}hlleitner, and M.~Spira,
  ``{HDECAY: Twenty$_{++}$ years after}'',} \textit{ Comput. Phys. Commun.}
  \textbf{ 238} (2019) 214--231,
  \href{http://dx.doi.org/10.1016/j.cpc.2018.12.010}{\doi{10.1016/j.cpc.2018.12.010}},
\href{http://www.arXiv.org/abs/1801.09506}{\texttt{ arXiv:1801.09506}}.
%%CITATION = ARXIV:1801.09506;%%.

\bibitem{Fontes:2017zfn}
D.~Fontes\hrefCMSnoop {}{ {et~al.}, ``{The C2HDM revisited}'',} \textit{ JHEP}
  \textbf{ 02} (2018) 073,
  \href{http://dx.doi.org/10.1007/JHEP02(2018)073}{\doi{10.1007/JHEP02(2018)073}},
\href{http://www.arXiv.org/abs/1711.09419}{\texttt{ arXiv:1711.09419}}.
%%CITATION = ARXIV:1711.09419;%%.

\bibitem{Brivio:2019myy}
\hrefCMSnoop {}{I.~Brivio, T.~Corbett, and M.~Trott, ``{The Higgs width in the
  SMEFT}'',} \textit{ JHEP} \textbf{ 10} (2019) 056,
  \href{http://dx.doi.org/10.1007/JHEP10(2019)056}{\doi{10.1007/JHEP10(2019)056}},
\href{http://www.arXiv.org/abs/1906.06949}{\texttt{ arXiv:1906.06949}}.
%%CITATION = ARXIV:1906.06949;%%.

\bibitem{CMS-HIG-12-041}
\href
  {https://cms-physics.web.cern.ch/cms-physics/public/HIG-12-041-pas.pdf}{{CMS}
  Collaboration, ``{Updated results on the new boson discovered in the search
  for the standard model Higgs boson in the $H\to ZZ\to 4\ell$ channel in pp
  collisions at $\sqrt{s}$ = 7 and 8 TeV}'',} Technical Report CMS-HIG-12-041,
  CERN, Geneva, 2012.

\bibitem{Frixione:2007vw}
\hrefCMSnoop {}{S.~Frixione, P.~Nason, and C.~Oleari, ``{Matching NLO QCD
  computations with Parton Shower simulations: the POWHEG method}'',} \textit{
  JHEP} \textbf{ 11} (2007) 070,
  \href{http://dx.doi.org/10.1088/1126-6708/2007/11/070}{\doi{10.1088/1126-6708/2007/11/070}},
\href{http://www.arXiv.org/abs/0709.2092}{\texttt{ arXiv:0709.2092}}.
%%CITATION = ARXIV:0709.2092;%%.

\bibitem{Heinemeyer:2013tqa}
\hrefCMSnoop {}{{LHC Higgs Cross Section Working Group} Collaboration,
  ``{Handbook of LHC Higgs Cross Sections: 3. Higgs Properties}'',}
  \href{http://dx.doi.org/10.5170/CERN-2013-004}{\doi{10.5170/CERN-2013-004}},
\href{http://www.arXiv.org/abs/1307.1347}{\texttt{ arXiv:1307.1347}}.
%%CITATION = ARXIV:1307.1347;%%.

\bibitem{Agashe:2014kda}
\hrefCMSnoop {}{{Particle Data Group} Collaboration, ``{Review of Particle
  Physics}'',} \textit{ Chin. Phys.} \textbf{ C38} (2014) 090001,
\href{http://dx.doi.org/10.1088/1674-1137/38/9/090001}{\doi{10.1088/1674-1137/38/9/090001}}.
%%CITATION = CHPHD,C38,090001;%%.

\bibitem{Denner:2016kdg}
\hrefCMSnoop {}{A.~Denner, S.~Dittmaier, and L.~Hofer, ``{Collier: a
  fortran-based Complex One-Loop LIbrary in Extended Regularizations}'',}
  \textit{ Comput. Phys. Commun.} \textbf{ 212} (2017) 220--238,
  \href{http://dx.doi.org/10.1016/j.cpc.2016.10.013}{\doi{10.1016/j.cpc.2016.10.013}},
\href{http://www.arXiv.org/abs/1604.06792}{\texttt{ arXiv:1604.06792}}.
%%CITATION = ARXIV:1604.06792;%%.

\bibitem{Brehmer:2019bvj}
J.~Brehmer\hrefCMSnoop {}{ {et~al.}, ``{Effective LHC measurements with matrix
  elements and machine learning}'',} \textit{ J. Phys. Conf. Ser.} \textbf{
  1525} (2020) 012022,
  \href{http://dx.doi.org/10.1088/1742-6596/1525/1/012022}{\doi{10.1088/1742-6596/1525/1/012022}},
\href{http://www.arXiv.org/abs/1906.01578}{\texttt{ arXiv:1906.01578}}.
%%CITATION = ARXIV:1906.01578;%%.

\bibitem{Berger:2019wnu}
\hrefCMSnoop {}{N.~Berger {et~al.}, ``{Simplified Template Cross Sections -
  Stage 1.1}'',}
\href{http://www.arXiv.org/abs/1906.02754}{\texttt{ arXiv:1906.02754}}.
%%CITATION = ARXIV:1906.02754;%%.

\bibitem{Neyman:1933}
\hrefCMSnoop {}{J.~Neyman and E.~S. Pearson, ``{On the Problem of the Most
  Efficient Tests of Statistical Hypotheses}'',} \textit{ Philosophical
  Transactions of the Royal Society} \textbf{ A231} (1933) 289--337,
  \href{http://dx.doi.org/10.1098/rsta.1933.0009}{\doi{10.1098/rsta.1933.0009}}.

\bibitem{Atwood:1991ka}
\hrefCMSnoop {}{D.~Atwood and A.~Soni, ``{Analysis for magnetic moment and
  electric dipole moment form-factors of the top quark via $e^+ e^- \to t
  \bar{t}$ }'',} \textit{ Phys. Rev. D} \textbf{ 45} (1992) 2405--2413,
\href{http://dx.doi.org/10.1103/PhysRevD.45.2405}{\doi{10.1103/PhysRevD.45.2405}}.
%%CITATION = PHRVA,D45,2405;%%.

\bibitem{Davier:1992nw}
\hrefCMSnoop {}{M.~Davier, L.~Duflot, F.~Le~Diberder, and A.~Rouge, ``{The
  Optimal method for the measurement of tau polarization}'',} \textit{ Phys.
  Lett. B} \textbf{ 306} (1993) 411--417,
\href{http://dx.doi.org/10.1016/0370-2693(93)90101-M}{\doi{10.1016/0370-2693(93)90101-M}}.
%%CITATION = PHLTA,B306,411;%%.

\bibitem{Diehl:1993br}
\hrefCMSnoop {}{M.~Diehl and O.~Nachtmann, ``{Optimal observables for the
  measurement of three gauge boson couplings in $e^+ e^- \to W^+ W^-$ }'',}
  \textit{ Z. Phys.} \textbf{ C62} (1994) 397--412,
\href{http://dx.doi.org/10.1007/BF01555899}{\doi{10.1007/BF01555899}}.
%%CITATION = ZEPYA,C62,397;%%.

\bibitem{Hocker:2007ht}
\hrefCMSnoop {}{A.~Hocker {et~al.}, ``{TMVA - Toolkit for Multivariate Data
  Analysis}'',}
\href{http://www.arXiv.org/abs/physics/0703039}{\texttt{
  arXiv:physics/0703039}}.
%%CITATION = PHYSICS/0703039;%%.

\bibitem{Verkerke:2003ir}
\hrefCMSnoop {}{W.~Verkerke and D.~P. Kirkby, ``{The RooFit toolkit for data
  modeling}'',} in \textit{ 13$^\text{th}$ International Conference for
  Computing in High-Energy and Nuclear Physics (CHEP03)}.
\newblock 2003.
\newblock \href{http://www.arXiv.org/abs/physics/0306116}{\texttt{
  arXiv:physics/0306116}}.
\newblock
{CHEP-2003-MOLT007}.
%%CITATION = PHYSICS/0306116;%%.

\bibitem{Brun:1997pa}
\hrefCMSnoop {}{R.~Brun and F.~Rademakers, ``{ROOT: An object oriented data
  analysis framework}'',} \textit{ Nucl. Instrum. Meth. A} \textbf{ 389} (1997)
  81,
\href{http://dx.doi.org/10.1016/S0168-9002(97)00048-X}{\doi{10.1016/S0168-9002(97)00048-X}}.
%%CITATION = NUIMA,A389,81;%%.

\bibitem{powhegvv}
\hrefCMSnoop {}{T.~Melia, P.~Nason, R.~R{\"o}ntsch, and G.~Zanderighi, ``{$ZZ$,
  $W^{\pm}Z$ and $W^+W^-$ production, including $\gamma$/Z interference, singly
  resonant contributions and interference for identical leptons}'',} \textit{
  JHEP} \textbf{ 1111} (2011) 078.

\bibitem{CMS-HIG-19-001}
\href {https://cds.cern.ch/record/2668684}{{CMS} Collaboration, ``{Measurements
  of properties of the Higgs boson in the four-lepton final state in
  proton-proton collisions at $\sqrt{s}=13$ TeV}'',} Technical Report
  CMS-HIG-19-001, CERN, Geneva, 2019.

\bibitem{Sjostrand:2014zea}
T.~Sj{\"o}strand\hrefCMSnoop {}{ {et~al.}, ``An introduction to {PYTHIA}
  8.2'',} \textit{ Comput. Phys. Commun.} \textbf{ 191} (2015) 159,
  \href{http://dx.doi.org/10.1016/j.cpc.2015.01.024}{\doi{10.1016/j.cpc.2015.01.024}},
\href{http://www.arXiv.org/abs/1410.3012}{\texttt{ arXiv:1410.3012}}.
%%CITATION = ARXIV:1410.3012;%%.

\bibitem{HomotopyContinuation}
\hrefCMSnoop {}{T.~Chen and T.-Y. Li, ``Homotopy continuation method for
  solving systems of nonlinear and polynomial equations'',} \textit{ Commun.
  Inf. Syst.} \textbf{ 15} (2015), no.~2, 119--307,
  \href{http://dx.doi.org/10.4310/CIS.2015.v15.n2.a1}{\doi{10.4310/CIS.2015.v15.n2.a1}}.

\bibitem{Hom4PS1}
\hrefCMSnoop {}{T.~Chen, T.-L. Lee, and T.-Y. Li, ``{Hom4PS-3}: A Parallel
  Numerical Solver for Systems of Polynomial Equations Based on Polyhedral
  Homotopy Continuation Methods'',} in \textit{ Mathematical Software---ICMS
  2014}, H.~Hong and C.~Yap, eds., number 8592 in Lecture Notes in Computer
  Science, pp.~183--190.
\newblock Springer Berlin Heidelberg, January, 2014.
\newblock
  \href{http://dx.doi.org/10.1007/978-3-662-44199-2_30}{\doi{10.1007/978-3-662-44199-2_30}}.

\bibitem{Hom4PS2}
\hrefCMSnoop {}{T.~Chen, T.-L. Lee, and T.-Y. Li, ``Mixed cell computation in
  {Hom4PS-3}'',} \textit{ Journal of Symbolic Computation} \textbf{ 79, Part 3}
  (March, 2017) 516--534,
  \href{http://dx.doi.org/10.1016/j.jsc.2016.07.017}{\doi{10.1016/j.jsc.2016.07.017}}.

\bibitem{cuttingplanes}
A.~S. Nemirovsky and D.~B. Yudin, ``Problem complexity and method efficiency in
  optimization.''.
\newblock Wiley, 1983.

\bibitem{gurobi}
\href {http://www.gurobi.com}{{Gurobi Optimization, LLC}, ``Gurobi Optimizer
  Reference Manual'',} 2018.

\bibitem{Catani:2007vq}
\hrefCMSnoop {}{S.~Catani and M.~Grazzini, ``{An NNLO subtraction formalism in
  hadron collisions and its application to Higgs boson production at the
  LHC}'',} \textit{ Phys. Rev. Lett.} \textbf{ 98} (2007) 222002,
  \href{http://dx.doi.org/10.1103/PhysRevLett.98.222002}{\doi{10.1103/PhysRevLett.98.222002}},
\href{http://www.arXiv.org/abs/hep-ph/0703012}{\texttt{ arXiv:hep-ph/0703012}}.
%%CITATION = HEP-PH/0703012;%%.

\bibitem{Grazzini:2008tf}
\hrefCMSnoop {}{M.~Grazzini, ``{NNLO predictions for the Higgs boson signal in
  the $H \to WW \to\ell\nu\ell\nu$ and $H \to ZZ \to 4\ell$ decay channels}'',}
  \textit{ JHEP} \textbf{ 02} (2008) 043,
  \href{http://dx.doi.org/10.1088/1126-6708/2008/02/043}{\doi{10.1088/1126-6708/2008/02/043}},
\href{http://www.arXiv.org/abs/0801.3232}{\texttt{ arXiv:0801.3232}}.
%%CITATION = ARXIV:0801.3232;%%.

\bibitem{Grazzini:2013mca}
\hrefCMSnoop {}{M.~Grazzini and H.~Sargsyan, ``{Heavy-quark mass effects in
  Higgs boson production at the LHC}'',} \textit{ JHEP} \textbf{ 09} (2013)
  129,
  \href{http://dx.doi.org/10.1007/JHEP09(2013)129}{\doi{10.1007/JHEP09(2013)129}},
\href{http://www.arXiv.org/abs/1306.4581}{\texttt{ arXiv:1306.4581}}.
%%CITATION = ARXIV:1306.4581;%%.

\bibitem{Melnikov:2015laa}
\hrefCMSnoop {}{K.~Melnikov and M.~Dowling, ``{Production of two Z-bosons in
  gluon fusion in the heavy top quark approximation}'',} \textit{ Phys. Lett.
  B} \textbf{ 744} (2015) 43--47,
  \href{http://dx.doi.org/10.1016/j.physletb.2015.03.030}{\doi{10.1016/j.physletb.2015.03.030}},
\href{http://www.arXiv.org/abs/1503.01274}{\texttt{ arXiv:1503.01274}}.
%%CITATION = ARXIV:1503.01274;%%.

\bibitem{Caola:2015psa}
\hrefCMSnoop {}{F.~Caola, K.~Melnikov, R.~R{\"o}ntsch, and L.~Tancredi, ``{QCD
  corrections to ZZ production in gluon fusion at the LHC}'',} \textit{ Phys.
  Rev. D} \textbf{ 92} (2015) 094028,
  \href{http://dx.doi.org/10.1103/PhysRevD.92.094028}{\doi{10.1103/PhysRevD.92.094028}},
\href{http://www.arXiv.org/abs/1509.06734}{\texttt{ arXiv:1509.06734}}.
%%CITATION = ARXIV:1509.06734;%%.

\bibitem{Grazzini:2018owa}
\hrefCMSnoop {}{M.~Grazzini, S.~Kallweit, M.~Wiesemann, and J.~Y. Yook, ``{$ZZ$
  production at the LHC: NLO QCD corrections to the loop-induced gluon fusion
  channel}'',} \textit{ JHEP} \textbf{ 03} (2019) 070,
  \href{http://dx.doi.org/10.1007/JHEP03(2019)070}{\doi{10.1007/JHEP03(2019)070}},
\href{http://www.arXiv.org/abs/1811.09593}{\texttt{ arXiv:1811.09593}}.
%%CITATION = ARXIV:1811.09593;%%.

\bibitem{Caola:2016trd}
F.~Caola\hrefCMSnoop {}{ {et~al.}, ``{QCD corrections to vector boson pair
  production in gluon fusion including interference effects with off-shell
  Higgs at the LHC}'',} \textit{ JHEP} \textbf{ 07} (2016) 087,
  \href{http://dx.doi.org/10.1007/JHEP07(2016)087}{\doi{10.1007/JHEP07(2016)087}},
\href{http://www.arXiv.org/abs/1605.04610}{\texttt{ arXiv:1605.04610}}.
%%CITATION = ARXIV:1605.04610;%%.

\bibitem{Bishara:2016jga}
\hrefCMSnoop {}{F.~Bishara, U.~Haisch, P.~F. Monni, and E.~Re, ``{Constraining
  Light-Quark Yukawa Couplings from Higgs Distributions}'',} \textit{ Phys.
  Rev. Lett.} \textbf{ 118} (2017) 121801,
  \href{http://dx.doi.org/10.1103/PhysRevLett.118.121801}{\doi{10.1103/PhysRevLett.118.121801}},
\href{http://www.arXiv.org/abs/1606.09253}{\texttt{ arXiv:1606.09253}}.
%%CITATION = ARXIV:1606.09253;%%.

\bibitem{Bylund:2016phk}
O.~Bessidskaia~Bylund\hrefCMSnoop {}{ {et~al.}, ``{Probing top quark neutral
  couplings in the Standard Model Effective Field Theory at NLO in QCD}'',}
  \textit{ JHEP} \textbf{ 05} (2016) 052,
  \href{http://dx.doi.org/10.1007/JHEP05(2016)052}{\doi{10.1007/JHEP05(2016)052}},
\href{http://www.arXiv.org/abs/1601.08193}{\texttt{ arXiv:1601.08193}}.
%%CITATION = ARXIV:1601.08193;%%.

\bibitem{Englert:2016hvy}
\hrefCMSnoop {}{C.~Englert, R.~Rosenfeld, M.~Spannowsky, and A.~Tonero, ``{New
  physics and signal-background interference in associated $pp\to HZ$
  production}'',} \textit{ EPL} \textbf{ 114} (2016) 31001,
  \href{http://dx.doi.org/10.1209/0295-5075/114/31001}{\doi{10.1209/0295-5075/114/31001}},
\href{http://www.arXiv.org/abs/1603.05304}{\texttt{ arXiv:1603.05304}}.
%%CITATION = ARXIV:1603.05304;%%.

\bibitem{Hespel-2015-gg}
\hrefCMSnoop {}{B.~Hespel, F.~Maltoni, and E.~Vryonidou, ``{Higgs and Z boson
  associated production via gluon fusion in the SM and the 2HDM}'',} \textit{
  JHEP} \textbf{ 06} (2015) 065,
  \href{http://dx.doi.org/10.1007/JHEP06(2015)065}{\doi{10.1007/JHEP06(2015)065}},
\href{http://www.arXiv.org/abs/1503.01656}{\texttt{ arXiv:1503.01656}}.
%%CITATION = ARXIV:1503.01656;%%.

\bibitem{Chatrchyan:2011ya}
\hrefCMSnoop {}{{CMS} Collaboration, ``{Measurement of the weak mixing angle
  with the Drell-Yan process in proton-proton collisions at the LHC}'',}
  \textit{ Phys. Rev. D} \textbf{ 84} (2011) 112002,
  \href{http://dx.doi.org/10.1103/PhysRevD.84.112002}{\doi{10.1103/PhysRevD.84.112002}},
\href{http://www.arXiv.org/abs/1110.2682}{\texttt{ arXiv:1110.2682}}.
%%CITATION = ARXIV:1110.2682;%%.

\bibitem{CMS-HIG-19-009}
\href {https://cds.cern.ch/record/2725543}{{CMS} Collaboration, ``{Constraints
  on anomalous Higgs boson couplings to vector bosons and fermions in
  production and decay in the $H\to4\ell$ channel}'',} Technical Report
  CMS-HIG-19-009, CERN, Geneva, 2020.

\bibitem{Chetyrkin:1996ke}
\hrefCMSnoop {}{K.~G. Chetyrkin, B.~A. Kniehl, and M.~Steinhauser, ``{Three
  loop O$(\alpha_s^2 G_F M_t^2)$ corrections to hadronic Higgs decays}'',}
  \textit{ Nucl. Phys. B} \textbf{ 490} (1997) 19,
  \href{http://dx.doi.org/10.1016/S0550-3213(97)00051-5}{\doi{10.1016/S0550-3213(97)00051-5}},
\href{http://www.arXiv.org/abs/hep-ph/9701277}{\texttt{ arXiv:hep-ph/9701277}}.
%%CITATION = HEP-PH/9701277;%%.

\bibitem{Chetyrkin:1998mw}
\hrefCMSnoop {}{K.~G. Chetyrkin, B.~A. Kniehl, M.~Steinhauser, and W.~A.
  Bardeen, ``{Effective QCD interactions of CP odd Higgs bosons at three
  loops}'',} \textit{ Nucl. Phys. B} \textbf{ 535} (1998) 3,
  \href{http://dx.doi.org/10.1016/S0550-3213(98)00594-X}{\doi{10.1016/S0550-3213(98)00594-X}},
\href{http://www.arXiv.org/abs/hep-ph/9807241}{\texttt{ arXiv:hep-ph/9807241}}.
%%CITATION = HEP-PH/9807241;%%.

\bibitem{Bernreuther:2015fts}
W.~Bernreuther\hrefCMSnoop {}{ {et~al.}, ``{Production of heavy Higgs bosons
  and decay into top quarks at the LHC}'',} \textit{ Phys. Rev. D} \textbf{ 93}
  (2016), no.~3, 034032,
  \href{http://dx.doi.org/10.1103/PhysRevD.93.034032}{\doi{10.1103/PhysRevD.93.034032}},
\href{http://www.arXiv.org/abs/1511.05584}{\texttt{ arXiv:1511.05584}}.
%%CITATION = ARXIV:1511.05584;%%.

\bibitem{Demartin:2014fia}
F.~Demartin\hrefCMSnoop {}{ {et~al.}, ``{Higgs characterisation at NLO in QCD:
  CP properties of the top-quark Yukawa interaction}'',} \textit{ Eur. Phys.
  J.} \textbf{ C74} (2014), no.~9, 3065,
  \href{http://dx.doi.org/10.1140/epjc/s10052-014-3065-2}{\doi{10.1140/epjc/s10052-014-3065-2}},
\href{http://www.arXiv.org/abs/1407.5089}{\texttt{ arXiv:1407.5089}}.
%%CITATION = ARXIV:1407.5089;%%.

\bibitem{Falkowski:2015wza}
A.~Falkowski\hrefCMSnoop {}{ {et~al.}, ``{Rosetta: an operator basis translator
  for Standard Model effective field theory}'',} \textit{ Eur. Phys. J. C}
  \textbf{ 75} (2015) 583,
  \href{http://dx.doi.org/10.1140/epjc/s10052-015-3806-x}{\doi{10.1140/epjc/s10052-015-3806-x}},
\href{http://www.arXiv.org/abs/1508.05895}{\texttt{ arXiv:1508.05895}}.
%%CITATION = ARXIV:1508.05895;%%.

\end{thebibliography}\endgroup
