%!PS-Adobe-3.0 EPSF-3.0 
%%BoundingBox: 20 320 550 780
%%Pages: 0
%%Creator: Sun Microsystems, Inc.
%%Title: none
%%CreationDate: none
%%LanguageLevel: 2
%%EndComments
%%BeginProlog
%%BeginResource: procset SDRes-Prolog 1.0 0
/b4_inc_state save def
/dict_count countdictstack def
/op_count count 1 sub def
userdict begin
0 setgray 0 setlinecap 1 setlinewidth 0 setlinejoin 10 setmiterlimit[] 0 setdash newpath
/languagelevel where {pop languagelevel 1 ne {false setstrokeadjust false setoverprint} if} if
/bdef {bind def} bind def
/c {setrgbcolor} bdef
/l {neg lineto} bdef
/rl {neg rlineto} bdef
/lc {setlinecap} bdef
/lj {setlinejoin} bdef
/lw {setlinewidth} bdef
/ml {setmiterlimit} bdef
/ld {setdash} bdef
/m {neg moveto} bdef
/ct {6 2 roll neg 6 2 roll neg 6 2 roll neg curveto} bdef
/r {rotate} bdef
/t {neg translate} bdef
/s {scale} bdef
/sw {show} bdef
/gs {gsave} bdef
/gr {grestore} bdef
/f {findfont dup length dict begin
{1 index /FID ne {def} {pop pop} ifelse} forall /Encoding ISOLatin1Encoding def
currentdict end /NFont exch definefont pop /NFont findfont} bdef
/p {closepath} bdef
/sf {scalefont setfont} bdef
/ef {eofill}bdef
/pc {closepath stroke}bdef
/ps {stroke}bdef
/pum {matrix currentmatrix}bdef
/pom {setmatrix}bdef
/bs {/aString exch def /nXOfs exch def /nWidth exch def currentpoint nXOfs 0 rmoveto pum nWidth aString stringwidth pop div 1 scale aString show pom moveto} bdef
%%EndResource
%%EndProlog
%%BeginSetup
%%EndSetup
%%Page: 1 1
%%BeginPageSetup
%%EndPageSetup
pum
0.02834 0.02834 s 
0 -27940 t
/tm matrix currentmatrix def
gs
0 0 m 21589 0 l 21589 27939 l 0 27939 l 0 0 l eoclip newpath
gs
0 0 m 21589 0 l 21589 27939 l 0 27939 l 0 0 l eoclip newpath
51 lw 1 lj 0.003 0.003 0.003 c 13136 6659 m  16106 4524 l  ps
4032 12944 m  7004 10821 l  ps
52 lw 6607 10506 m  5633 9891 l  ps
6994 10750 m  6612 10284 l  6409 10606 l  6994 10750 l  p ef
5246 9647 m  5628 10113 l  5831 9791 l  5246 9647 l  p ef
51 lw 9148 4787 m  11177 13650 l  ps
15138 555 m  17169 9418 l  ps
11227 13615 m  17196 9449 l  ps
5669 8809 m  9581 6117 l  ps
52 lw 10010 8882 m  10098 8382 l  ps
10187 7881 m  10275 7381 l  ps
10363 6881 m  10451 6381 l  ps
10540 5880 m  10628 5380 l  ps
51 lw 9397 12364 m  10020 8826 l  ps
52 lw 9423 6223 m  9839 5932 l  ps
10255 5640 m  10672 5349 l  ps
12973 6039 m  12691 4135 l  ps
13040 6491 m  13145 5898 l  12768 5954 l  13040 6491 l  p ef
12624 3683 m  12519 4276 l  12896 4220 l  12624 3683 l  p ef
13126 7303 m  13409 9208 l  ps
13059 6851 m  12954 7444 l  13331 7388 l  13059 6851 l  p ef
13476 9660 m  13581 9067 l  13204 9123 l  13476 9660 l  p ef
7574 11096 m  8548 11709 l  ps
7187 10852 m  7569 11318 l  7772 10995 l  7187 10852 l  p ef
8935 11953 m  8553 11487 l  8350 11810 l  8935 11953 l  p ef
1.000 1.000 1.000 c 13771 6198 m  13793 6236 l  13812 6276 l  13830 6318 l 
13847 6360 l  13862 6403 l  13874 6448 l  13884 6494 l  13893 6541 l  13899 6588 l 
13904 6635 l  13907 6684 l  13907 6731 l  13906 6780 l  13902 6828 l  13897 6877 l 
13889 6925 l  13880 6972 l  13869 7020 l  13855 7066 l  13840 7112 l  13823 7158 l 
13804 7202 l  13784 7245 l  13761 7287 l  13737 7328 l  13712 7367 l  13685 7405 l 
13656 7441 l  13627 7476 l  13596 7508 l  13563 7539 l  13530 7568 l  13530 7568 l 
13563 7539 l  13596 7508 l  13627 7476 l  13656 7441 l  13685 7405 l  13712 7367 l 
13737 7328 l  13761 7287 l  13784 7245 l  13804 7202 l  13823 7158 l  13840 7112 l 
13855 7066 l  13869 7020 l  13880 6972 l  13889 6925 l  13897 6877 l  13902 6828 l 
13906 6780 l  13907 6731 l  13907 6684 l  13904 6635 l  13899 6588 l  13893 6541 l 
13884 6494 l  13874 6448 l  13862 6403 l  13847 6360 l  13830 6318 l  13812 6276 l 
13793 6236 l  13771 6198 l  13771 6198 l  p ef
51 lw 0.003 0.003 0.003 c 13771 6198 m  13793 6236 l  13812 6276 l  13830 6318 l 
13847 6360 l  13862 6403 l  13874 6448 l  13884 6494 l  13893 6541 l  13899 6588 l 
13904 6635 l  13907 6684 l  13907 6731 l  13906 6780 l  13902 6828 l  13897 6877 l 
13889 6925 l  13880 6972 l  13869 7020 l  13855 7066 l  13840 7112 l  13823 7158 l 
13804 7202 l  13784 7245 l  13761 7287 l  13737 7328 l  13712 7367 l  13685 7405 l 
13656 7441 l  13627 7476 l  13596 7508 l  13563 7539 l  13530 7568 l  13530 7568 l 
13563 7539 l  13596 7508 l  13627 7476 l  13656 7441 l  13685 7405 l  13712 7367 l 
13737 7328 l  13761 7287 l  13784 7245 l  13804 7202 l  13823 7158 l  13840 7112 l 
13855 7066 l  13869 7020 l  13880 6972 l  13889 6925 l  13897 6877 l  13902 6828 l 
13906 6780 l  13907 6731 l  13907 6684 l  13904 6635 l  13899 6588 l  13893 6541 l 
13884 6494 l  13874 6448 l  13862 6403 l  13847 6360 l  13830 6318 l  13812 6276 l 
13793 6236 l  13771 6198 l  13771 6198 l  pc

1.000 1.000 1.000 c 9455 12421 m  9509 12525 l  9567 12627 l  9630 12725 l 
9699 12820 l  9772 12911 l  9851 12998 l  9934 13081 l  10021 13159 l 
10112 13233 l  10207 13302 l  10305 13366 l  10406 13425 l  10510 13478 l 
10618 13525 l  10727 13567 l  10838 13603 l  10951 13634 l  11066 13658 l 
11182 13676 l  11182 13676 l  11066 13658 l  10951 13634 l  10838 13603 l 
10727 13567 l  10618 13525 l  10510 13478 l  10406 13425 l  10305 13366 l 
10207 13302 l  10112 13233 l  10021 13159 l  9934 13081 l  9851 12998 l 
9772 12911 l  9699 12820 l  9630 12725 l  9567 12627 l  9509 12525 l  9455 12421 l 
9455 12421 l  p ef
0.003 0.003 0.003 c 9455 12421 m  9509 12525 l  9567 12627 l  9630 12725 l 
9699 12820 l  9772 12911 l  9851 12998 l  9934 13081 l  10021 13159 l 
10112 13233 l  10207 13302 l  10305 13366 l  10406 13425 l  10510 13478 l 
10618 13525 l  10727 13567 l  10838 13603 l  10951 13634 l  11066 13658 l 
11182 13676 l  11182 13676 l  11066 13658 l  10951 13634 l  10838 13603 l 
10727 13567 l  10618 13525 l  10510 13478 l  10406 13425 l  10305 13366 l 
10207 13302 l  10112 13233 l  10021 13159 l  9934 13081 l  9851 12998 l 
9772 12911 l  9699 12820 l  9630 12725 l  9567 12627 l  9509 12525 l  9455 12421 l 
9455 12421 l  pc

1 lw 13746 7422 m  13529 7592 l  ps
13245 7813 m  13692 7654 l  13507 7418 l  13245 7813 l  p ef

pum
14043 7688 t
0.003 0.003 1.000 c 545 -431 m  201 -431 l  204 -371 210 -315 220 -264 ct 248 -121 303 -49 384 -49 ct 
492 -49 545 -176 545 -431 ct p
198 -470 m  544 -470 l  543 -531 537 -590 526 -647 ct 496 -797 442 -872 362 -872 ct 
256 -872 202 -738 198 -470 ct p
333 10 m  269 10 215 -22 170 -84 ct 136 -134 112 -194 99 -265 ct 71 -408 81 -548 130 -687 ct 
186 -850 281 -931 412 -931 ct 474 -931 528 -899 572 -836 ct 606 -787 630 -728 643 -658 ct 
671 -513 662 -371 615 -234 ct 560 -71 466 10 333 10 ct p ef
pom

pum
9048 14443 t
559 -715 m  557 -255 l  639 -261 700 -290 740 -340 ct 780 -392 792 -458 775 -539 ct 
754 -646 682 -704 559 -715 ct p
418 -255 m  421 -715 l  240 -691 167 -593 201 -420 ct 222 -315 294 -260 418 -255 ct 
p
418 -206 m  213 -206 95 -285 64 -442 ct 45 -544 75 -625 154 -685 ct 223 -738 312 -764 421 -764 ct 
422 -813 420 -853 414 -885 ct 409 -909 374 -921 309 -921 ct 308 -960 l  679 -960 l 
680 -921 l  623 -916 588 -902 574 -879 ct 563 -863 558 -824 558 -764 ct 764 -764 882 -686 913 -531 ct 
932 -429 902 -348 822 -288 ct 751 -233 662 -206 556 -206 ct 554 -155 556 -112 563 -77 ct 
567 -52 603 -39 670 -39 ct 675 -39 l  674 0 l  304 0 l  304 -39 l  358 -45 392 -59 405 -83 ct 
416 -100 420 -141 418 -206 ct p ef
pom

pum
8374 8382 t
1.000 0.003 0.003 c 341 -917 m  341 -600 l  882 -600 l  882 -917 l  882 -977 878 -1016 871 -1036 ct 
865 -1050 853 -1062 835 -1073 ct 811 -1086 785 -1093 758 -1093 ct 717 -1093 l 
717 -1117 l  1211 -1117 l  1211 -1093 l  1170 -1093 l  1143 -1093 1117 -1087 1093 -1074 ct 
1075 -1064 1063 -1050 1056 -1032 ct 1050 -1013 1046 -975 1046 -917 ct 1046 -200 l 
1046 -140 1050 -101 1057 -82 ct 1063 -67 1075 -55 1092 -44 ct 1117 -30 1143 -24 1170 -24 ct 
1211 -24 l  1211 0 l  717 0 l  717 -24 l  758 -24 l  805 -24 839 -38 861 -66 ct 
875 -85 882 -129 882 -200 ct 882 -541 l  341 -541 l  341 -200 l  341 -140 345 -101 352 -82 ct 
358 -67 369 -55 387 -44 ct 412 -30 437 -24 464 -24 ct 506 -24 l  506 0 l  12 0 l 
12 -24 l  53 -24 l  100 -24 135 -38 156 -66 ct 170 -85 176 -129 176 -200 ct 
176 -917 l  176 -977 173 -1016 165 -1036 ct 160 -1050 148 -1062 131 -1073 ct 
106 -1086 80 -1093 53 -1093 ct 12 -1093 l  12 -1117 l  506 -1117 l  506 -1093 l 
464 -1093 l  437 -1093 412 -1087 387 -1074 ct 370 -1064 358 -1050 351 -1032 ct 
344 -1013 341 -975 341 -917 ct p ef
pom

pum
14655 7902 t
0.003 0.003 1.000 c 366 0 m  57 0 l  57 -44 l  181 -44 l  181 -401 l  57 -375 l 
57 -410 l  243 -467 l  243 -44 l  366 -44 l  366 0 l  p ef
pom
0.003 0.503 0.003 c 7172 10957 m  7143 10977 7114 10988 7079 10991 ct 7044 10994 7014 10988 6982 10973 ct 
6950 10959 6926 10939 6906 10910 ct 6886 10881 6876 10852 6873 10817 ct 6869 10782 6875 10752 6890 10720 ct 
6904 10688 6924 10665 6953 10645 ct 6982 10625 7011 10614 7046 10611 ct 7081 10608 7111 10613 7143 10628 ct 
7175 10643 7198 10663 7218 10692 ct 7238 10720 7249 10749 7252 10784 ct 7255 10819 7250 10850 7235 10881 ct 
7220 10913 7200 10937 7172 10957 ct 7172 10957 l  p ef
51 lw 0.003 0.003 0.003 c 7172 10957 m  7143 10977 7114 10988 7079 10991 ct 7044 10994 7014 10988 6982 10973 ct 
6950 10959 6926 10939 6906 10910 ct 6886 10881 6876 10852 6873 10817 ct 6869 10782 6875 10752 6890 10720 ct 
6904 10688 6924 10665 6953 10645 ct 6982 10625 7011 10614 7046 10611 ct 7081 10608 7111 10613 7143 10628 ct 
7175 10643 7198 10663 7218 10692 ct 7238 10720 7249 10749 7252 10784 ct 7255 10819 7250 10850 7235 10881 ct 
7220 10913 7200 10937 7172 10957 ct 7172 10957 l  pc
0.003 0.503 0.003 c 13160 6830 m  13131 6850 13102 6861 13067 6864 ct 13032 6867 13002 6861 12970 6846 ct 
12938 6832 12914 6812 12894 6783 ct 12874 6754 12864 6725 12861 6690 ct 12857 6655 12863 6625 12878 6593 ct 
12892 6561 12912 6538 12941 6518 ct 12970 6498 12999 6487 13034 6484 ct 13069 6481 13099 6486 13131 6501 ct 
13163 6516 13186 6536 13206 6565 ct 13226 6593 13237 6622 13240 6657 ct 13243 6692 13238 6723 13223 6754 ct 
13208 6786 13188 6810 13160 6830 ct 13160 6830 l  p ef
0.003 0.003 0.003 c 13160 6830 m  13131 6850 13102 6861 13067 6864 ct 13032 6867 13002 6861 12970 6846 ct 
12938 6832 12914 6812 12894 6783 ct 12874 6754 12864 6725 12861 6690 ct 12857 6655 12863 6625 12878 6593 ct 
12892 6561 12912 6538 12941 6518 ct 12970 6498 12999 6487 13034 6484 ct 13069 6481 13099 6486 13131 6501 ct 
13163 6516 13186 6536 13206 6565 ct 13226 6593 13237 6622 13240 6657 ct 13243 6692 13238 6723 13223 6754 ct 
13208 6786 13188 6810 13160 6830 ct 13160 6830 l  pc
1.000 0.003 0.003 c 10140 8966 m  10111 8986 10082 8997 10047 9000 ct 10012 9003 9982 8997 9950 8982 ct 
9918 8968 9894 8948 9874 8919 ct 9854 8890 9844 8861 9841 8826 ct 9837 8791 9843 8761 9858 8729 ct 
9872 8697 9892 8674 9921 8654 ct 9950 8634 9979 8623 10014 8620 ct 10049 8617 10079 8622 10111 8637 ct 
10143 8652 10166 8672 10186 8701 ct 10206 8729 10217 8758 10220 8793 ct 10223 8828 10218 8859 10203 8890 ct 
10188 8922 10168 8946 10140 8966 ct 10140 8966 l  p ef
0.003 0.003 0.003 c 10140 8966 m  10111 8986 10082 8997 10047 9000 ct 10012 9003 9982 8997 9950 8982 ct 
9918 8968 9894 8948 9874 8919 ct 9854 8890 9844 8861 9841 8826 ct 9837 8791 9843 8761 9858 8729 ct 
9872 8697 9892 8674 9921 8654 ct 9950 8634 9979 8623 10014 8620 ct 10049 8617 10079 8622 10111 8637 ct 
10143 8652 10166 8672 10186 8701 ct 10206 8729 10217 8758 10220 8793 ct 10223 8828 10218 8859 10203 8890 ct 
10188 8922 10168 8946 10140 8966 ct 10140 8966 l  pc

pum
11389 6562 t
0.003 0.503 0.003 c 717 -931 m  1002 -931 l  1002 -911 l  969 -905 944 -894 927 -879 ct 
903 -856 881 -821 862 -774 ct 553 20 l  517 20 l  164 -785 l  146 -827 133 -853 126 -862 ct 
114 -876 100 -887 84 -896 ct 67 -904 44 -909 16 -911 ct 16 -931 l  405 -931 l 
405 -911 l  362 -907 334 -900 321 -889 ct 308 -879 301 -865 301 -848 ct 301 -826 312 -790 333 -741 ct 
573 -193 l  784 -734 l  805 -787 816 -824 816 -845 ct 816 -858 810 -871 796 -883 ct 
783 -896 761 -904 729 -909 ct 727 -910 723 -910 717 -911 ct 717 -931 l  p ef
pom

pum
6404 10113 t
717 -931 m  1002 -931 l  1002 -911 l  969 -905 944 -894 927 -879 ct 903 -856 881 -821 862 -774 ct 
553 20 l  517 20 l  164 -785 l  146 -827 133 -853 126 -862 ct 114 -876 100 -887 84 -896 ct 
67 -904 44 -909 16 -911 ct 16 -931 l  405 -931 l  405 -911 l  362 -907 334 -900 321 -889 ct 
308 -879 301 -865 301 -848 ct 301 -826 312 -790 333 -741 ct 573 -193 l  784 -734 l 
805 -787 816 -824 816 -845 ct 816 -858 810 -871 796 -883 ct 783 -896 761 -904 729 -909 ct 
727 -910 723 -910 717 -911 ct 717 -931 l  p ef
pom
1.000 1.000 1.000 c 13840 7505 m  13811 7525 13785 7540 13757 7552 ct 13729 7565 13707 7572 13687 7573 ct 
13666 7575 13654 7572 13647 7562 ct 13641 7552 13642 7540 13650 7521 ct 13659 7503 13672 7485 13694 7462 ct 
13715 7440 13738 7421 13767 7401 ct 13796 7381 13822 7366 13850 7353 ct 13878 7340 13900 7334 13920 7332 ct 
13941 7330 13953 7334 13960 7343 ct 13966 7353 13965 7366 13957 7384 ct 13948 7402 13935 7421 13913 7443 ct 
13892 7465 13869 7485 13840 7505 ct 13840 7505 l  p ef

103 lw 0.503 0.300 0.101 c 2351 8814 m  9256 8814 l  ps
1803 8814 m  2489 9043 l  2489 8586 l  1803 8814 l  p ef
9804 8814 m  9119 8586 l  9119 9043 l  9804 8814 l  p ef
17290 8776 m  16782 8776 l  ps
16274 8776 m  15766 8776 l  ps
15258 8776 m  14750 8776 l  ps
14242 8776 m  13734 8776 l  ps
13226 8776 m  12718 8776 l  ps
12210 8776 m  11702 8776 l  ps
11194 8776 m  10853 8776 l  ps
10305 8776 m  10991 9005 l  10991 8548 l  10305 8776 l  p ef
1.000 1.000 1.000 c 11598 8768 m  11609 8719 l  11617 8669 l  11623 8619 l 
11626 8569 l  11626 8519 l  11624 8468 l  11618 8418 l  11610 8369 l  11600 8319 l 
11587 8270 l  11571 8223 l  11553 8176 l  11533 8129 l  11509 8085 l  11484 8041 l 
11456 7999 l  11427 7958 l  11396 7919 l  11362 7882 l  11362 7882 l  11396 7919 l 
11427 7958 l  11456 7999 l  11484 8041 l  11509 8085 l  11533 8129 l  11553 8176 l 
11571 8223 l  11587 8270 l  11600 8319 l  11610 8369 l  11618 8418 l  11624 8468 l 
11626 8519 l  11626 8569 l  11623 8619 l  11617 8669 l  11609 8719 l  11598 8768 l 
11598 8768 l  p ef
51 lw 0.003 0.003 0.003 c 11598 8768 m  11609 8719 l  11617 8669 l  11623 8619 l 
11626 8569 l  11626 8519 l  11624 8468 l  11618 8418 l  11610 8369 l  11600 8319 l 
11587 8270 l  11571 8223 l  11553 8176 l  11533 8129 l  11509 8085 l  11484 8041 l 
11456 7999 l  11427 7958 l  11396 7919 l  11362 7882 l  11362 7882 l  11396 7919 l 
11427 7958 l  11456 7999 l  11484 8041 l  11509 8085 l  11533 8129 l  11553 8176 l 
11571 8223 l  11587 8270 l  11600 8319 l  11610 8369 l  11618 8418 l  11624 8468 l 
11626 8519 l  11626 8569 l  11623 8619 l  11617 8669 l  11609 8719 l  11598 8768 l 
11598 8768 l  pc

11320 7874 m  11460 8327 l  11704 8152 l  11320 7874 l  p ef

pum
11829 8570 t
0.003 0.003 1.000 c 545 -431 m  201 -431 l  204 -371 210 -315 220 -264 ct 248 -121 303 -49 384 -49 ct 
492 -49 545 -176 545 -431 ct p
198 -470 m  544 -470 l  543 -531 537 -590 526 -647 ct 496 -797 442 -872 362 -872 ct 
256 -872 202 -738 198 -470 ct p
333 10 m  269 10 215 -22 170 -84 ct 136 -134 112 -194 99 -265 ct 71 -408 81 -548 130 -687 ct 
186 -850 281 -931 412 -931 ct 474 -931 528 -899 572 -836 ct 606 -787 630 -728 643 -658 ct 
671 -513 662 -371 615 -234 ct 560 -71 466 10 333 10 ct p ef
pom
0.003 0.003 0.003 c 9144 4735 m  15113 569 l  ps
3456 16510 m  9425 12344 l  ps
16110 4545 m  18371 8787 l  ps
1.000 1.000 1.000 c 17198 9410 m  17246 9424 l  17294 9436 l  17343 9445 l 
17391 9452 l  17441 9457 l  17491 9458 l  17540 9457 l  17590 9454 l  17639 9447 l 
17688 9439 l  17736 9427 l  17784 9414 l  17831 9398 l  17877 9379 l  17922 9359 l 
17966 9335 l  18008 9309 l  18049 9282 l  18089 9252 l  18127 9220 l  18163 9186 l 
18197 9150 l  18231 9113 l  18261 9074 l  18290 9034 l  18317 8992 l  18341 8949 l 
18363 8904 l  18383 8859 l  18383 8859 l  18363 8904 l  18341 8949 l  18317 8992 l 
18290 9034 l  18261 9074 l  18231 9113 l  18197 9150 l  18163 9186 l  18127 9220 l 
18089 9252 l  18049 9282 l  18008 9309 l  17966 9335 l  17922 9359 l  17877 9379 l 
17831 9398 l  17784 9414 l  17736 9427 l  17688 9439 l  17639 9447 l  17590 9454 l 
17540 9457 l  17491 9458 l  17441 9457 l  17391 9452 l  17343 9445 l  17294 9436 l 
17246 9424 l  17198 9410 l  17198 9410 l  p ef
0.003 0.003 0.003 c 17198 9410 m  17246 9424 l  17294 9436 l  17343 9445 l 
17391 9452 l  17441 9457 l  17491 9458 l  17540 9457 l  17590 9454 l  17639 9447 l 
17688 9439 l  17736 9427 l  17784 9414 l  17831 9398 l  17877 9379 l  17922 9359 l 
17966 9335 l  18008 9309 l  18049 9282 l  18089 9252 l  18127 9220 l  18163 9186 l 
18197 9150 l  18231 9113 l  18261 9074 l  18290 9034 l  18317 8992 l  18341 8949 l 
18363 8904 l  18383 8859 l  18383 8859 l  18363 8904 l  18341 8949 l  18317 8992 l 
18290 9034 l  18261 9074 l  18231 9113 l  18197 9150 l  18163 9186 l  18127 9220 l 
18089 9252 l  18049 9282 l  18008 9309 l  17966 9335 l  17922 9359 l  17877 9379 l 
17831 9398 l  17784 9414 l  17736 9427 l  17688 9439 l  17639 9447 l  17590 9454 l 
17540 9457 l  17491 9458 l  17441 9457 l  17391 9452 l  17343 9445 l  17294 9436 l 
17246 9424 l  17198 9410 l  17198 9410 l  pc

9347 12294 m  9492 12746 l  9734 12568 l  9347 12294 l  p ef
1.000 1.000 1.000 c 17424 9077 m  17395 9097 17369 9112 17341 9124 ct 17313 9137 17291 9144 17271 9145 ct 
17250 9147 17238 9144 17231 9134 ct 17225 9124 17226 9112 17234 9093 ct 17243 9075 17256 9057 17278 9034 ct 
17299 9012 17322 8993 17351 8973 ct 17380 8953 17406 8938 17434 8925 ct 17462 8912 17484 8906 17504 8904 ct 
17525 8902 17537 8906 17544 8915 ct 17550 8925 17549 8938 17541 8956 ct 17532 8974 17519 8993 17497 9015 ct 
17476 9037 17453 9057 17424 9077 ct 17424 9077 l  p ef


pum
17468 10873 t
0.003 0.003 1.000 c 559 -715 m  557 -255 l  639 -261 700 -290 740 -340 ct 780 -392 792 -458 775 -539 ct 
754 -646 682 -704 559 -715 ct p
418 -255 m  421 -715 l  240 -691 167 -593 201 -420 ct 222 -315 294 -260 418 -255 ct 
p
418 -206 m  213 -206 95 -285 64 -442 ct 45 -544 75 -625 154 -685 ct 223 -738 312 -764 421 -764 ct 
422 -813 420 -853 414 -885 ct 409 -909 374 -921 309 -921 ct 308 -960 l  679 -960 l 
680 -921 l  623 -916 588 -902 574 -879 ct 563 -863 558 -824 558 -764 ct 764 -764 882 -686 913 -531 ct 
932 -429 902 -348 822 -288 ct 751 -233 662 -206 556 -206 ct 554 -155 556 -112 563 -77 ct 
567 -52 603 -39 670 -39 ct 675 -39 l  674 0 l  304 0 l  304 -39 l  358 -45 392 -59 405 -83 ct 
416 -100 420 -141 418 -206 ct p ef
pom

pum
18230 11142 t
366 0 m  57 0 l  57 -44 l  181 -44 l  181 -401 l  57 -375 l  57 -410 l 
243 -467 l  243 -44 l  366 -44 l  366 0 l  p ef
pom
1 lw 0.003 0.003 0.003 c 17530 9414 m  17524 9414 l  ps
17164 9414 m  17614 9564 l  17614 9264 l  17164 9414 l  p ef
51 lw 1770 8793 m  4031 13035 l  ps
52 lw 4010 13083 m  4098 12583 l  ps
4187 12082 m  4275 11582 l  ps
4363 11082 m  4451 10582 l  ps
4540 10081 m  4628 9581 l  ps
4625 9532 m  5041 9241 l  ps
5457 8949 m  5874 8658 l  ps
51 lw 3398 16564 m  4021 13026 l  ps
1.000 1.000 1.000 c 4198 7305 m  4169 7325 4143 7340 4115 7352 ct 4087 7365 4065 7372 4045 7373 ct 
4024 7375 4012 7372 4005 7362 ct 3999 7352 4000 7340 4008 7321 ct 4017 7303 4030 7285 4052 7262 ct 
4073 7240 4096 7221 4125 7201 ct 4154 7181 4180 7166 4208 7153 ct 4236 7140 4258 7134 4278 7132 ct 
4299 7130 4311 7134 4318 7143 ct 4324 7153 4323 7166 4315 7184 ct 4306 7202 4293 7221 4271 7243 ct 
4250 7265 4227 7285 4198 7305 ct 4198 7305 l  p ef


pum
3825 8367 t
0.503 0.300 0.101 c 717 -931 m  1002 -931 l  1002 -911 l  969 -905 944 -894 927 -879 ct 
903 -856 881 -821 862 -774 ct 553 20 l  517 20 l  164 -785 l  146 -827 133 -853 126 -862 ct 
114 -876 100 -887 84 -896 ct 67 -904 44 -909 16 -911 ct 16 -931 l  405 -931 l 
405 -911 l  362 -907 334 -900 321 -889 ct 308 -879 301 -865 301 -848 ct 301 -826 312 -790 333 -741 ct 
573 -193 l  784 -734 l  805 -787 816 -824 816 -845 ct 816 -858 810 -871 796 -883 ct 
783 -896 761 -904 729 -909 ct 727 -910 723 -910 717 -911 ct 717 -931 l  p ef
pom
1.000 1.000 1.000 c 15742 9059 m  15713 9079 15687 9094 15659 9106 ct 15631 9119 15609 9126 15589 9127 ct 
15568 9129 15556 9126 15549 9116 ct 15543 9106 15544 9094 15552 9075 ct 15561 9057 15574 9039 15596 9016 ct 
15617 8994 15640 8975 15669 8955 ct 15698 8935 15724 8920 15752 8907 ct 15780 8894 15802 8888 15822 8886 ct 
15843 8884 15855 8888 15862 8897 ct 15868 8907 15867 8920 15859 8938 ct 15850 8956 15837 8975 15815 8997 ct 
15794 9019 15771 9039 15742 9059 ct 15742 9059 l  p ef


pum
14485 10029 t
0.503 0.300 0.101 c 717 -931 m  1002 -931 l  1002 -911 l  969 -905 944 -894 927 -879 ct 
903 -856 881 -821 862 -774 ct 553 20 l  517 20 l  164 -785 l  146 -827 133 -853 126 -862 ct 
114 -876 100 -887 84 -896 ct 67 -904 44 -909 16 -911 ct 16 -931 l  405 -931 l 
405 -911 l  362 -907 334 -900 321 -889 ct 308 -879 301 -865 301 -848 ct 301 -826 312 -790 333 -741 ct 
573 -193 l  784 -734 l  805 -787 816 -824 816 -845 ct 816 -858 810 -871 796 -883 ct 
783 -896 761 -904 729 -909 ct 727 -910 723 -910 717 -911 ct 717 -931 l  p ef
pom

pum
12415 8367 t
0.003 0.003 1.000 c 323 -712 m  322 -744 316 -775 307 -806 ct 293 -852 286 -884 286 -902 ct 
286 -928 292 -947 302 -960 ct 313 -973 326 -980 342 -980 ct 355 -980 367 -973 377 -960 ct 
387 -947 392 -929 392 -905 ct 392 -883 386 -853 375 -816 ct 363 -779 355 -745 353 -713 ct 
377 -729 399 -749 418 -772 ct 448 -808 470 -831 484 -839 ct 499 -848 513 -852 528 -852 ct 
542 -852 554 -847 564 -837 ct 573 -826 578 -814 578 -800 ct 578 -783 571 -768 557 -754 ct 
544 -741 508 -727 450 -714 ct 416 -706 388 -697 365 -687 ct 388 -675 416 -665 449 -658 ct 
502 -648 537 -636 553 -620 ct 570 -605 578 -589 578 -571 ct 578 -557 573 -545 563 -535 ct 
553 -524 542 -519 529 -519 ct 516 -519 501 -524 485 -534 ct 469 -543 448 -565 420 -598 ct 
402 -621 380 -642 353 -662 ct 354 -636 359 -607 368 -576 ct 384 -521 392 -483 392 -462 ct 
392 -442 387 -426 377 -412 ct 366 -399 355 -392 343 -392 ct 327 -392 312 -399 299 -413 ct 
290 -424 286 -440 286 -463 ct 286 -486 290 -514 299 -545 ct 309 -577 314 -598 317 -610 ct 
319 -622 321 -639 323 -662 ct 298 -644 277 -624 258 -602 ct 227 -564 203 -540 187 -530 ct 
176 -523 164 -519 152 -519 ct 137 -519 124 -525 114 -535 ct 103 -546 98 -557 98 -570 ct 
98 -582 102 -594 111 -607 ct 120 -619 134 -630 152 -638 ct 163 -643 190 -651 231 -660 ct 
258 -666 284 -675 309 -686 ct 286 -699 258 -708 226 -715 ct 173 -727 140 -738 127 -748 ct 
108 -763 98 -781 98 -803 ct 98 -815 103 -827 113 -837 ct 123 -847 134 -852 147 -852 ct 
162 -852 177 -848 193 -838 ct 209 -828 229 -809 252 -780 ct 275 -751 299 -728 323 -712 ct 
p ef
pom
1 lw 0.003 0.003 0.003 c 18086 9256 m  18163 9146 l  ps
18370 8851 m  17989 9133 l  18234 9306 l  18370 8851 l  p ef
10795 13589 m  10801 13590 l  ps
11155 13653 m  10738 13427 l  10686 13722 l  11155 13653 l  p ef
11606 8406 m  11606 8541 l  ps
11606 8901 m  11756 8451 l  11456 8451 l  11606 8901 l  p ef
6161 11356 m  6452 11730 l  6619 11481 l  6161 11356 l  p ef
1.000 1.000 1.000 c 6353 11496 m  6390 11529 l  6429 11560 l  6469 11590 l 
6511 11617 l  6554 11642 l  6599 11664 l  6644 11684 l  6691 11702 l  6738 11718 l 
6786 11731 l  6835 11741 l  6884 11749 l  6934 11754 l  6984 11757 l  7034 11757 l 
7083 11754 l  7133 11749 l  7182 11741 l  7231 11731 l  7279 11718 l  7326 11703 l 
7373 11685 l  7418 11665 l  7463 11642 l  7506 11617 l  7548 11590 l  7588 11561 l 
7627 11529 l  7664 11496 l  7664 11496 l  7627 11529 l  7588 11561 l  7548 11590 l 
7506 11617 l  7463 11642 l  7418 11665 l  7373 11685 l  7326 11703 l  7279 11718 l 
7231 11731 l  7182 11741 l  7133 11749 l  7083 11754 l  7034 11757 l  6984 11757 l 
6934 11754 l  6884 11749 l  6835 11741 l  6786 11731 l  6738 11718 l  6691 11702 l 
6644 11684 l  6599 11664 l  6554 11642 l  6511 11617 l  6469 11590 l  6429 11560 l 
6390 11529 l  6353 11496 l  6353 11496 l  p ef
51 lw 0.003 0.003 0.003 c 6353 11496 m  6390 11529 l  6429 11560 l  6469 11590 l 
6511 11617 l  6554 11642 l  6599 11664 l  6644 11684 l  6691 11702 l  6738 11718 l 
6786 11731 l  6835 11741 l  6884 11749 l  6934 11754 l  6984 11757 l  7034 11757 l 
7083 11754 l  7133 11749 l  7182 11741 l  7231 11731 l  7279 11718 l  7326 11703 l 
7373 11685 l  7418 11665 l  7463 11642 l  7506 11617 l  7548 11590 l  7588 11561 l 
7627 11529 l  7664 11496 l  7664 11496 l  7627 11529 l  7588 11561 l  7548 11590 l 
7506 11617 l  7463 11642 l  7418 11665 l  7373 11685 l  7326 11703 l  7279 11718 l 
7231 11731 l  7182 11741 l  7133 11749 l  7083 11754 l  7034 11757 l  6984 11757 l 
6934 11754 l  6884 11749 l  6835 11741 l  6786 11731 l  6738 11718 l  6691 11702 l 
6644 11684 l  6599 11664 l  6554 11642 l  6511 11617 l  6469 11590 l  6429 11560 l 
6390 11529 l  6353 11496 l  6353 11496 l  pc

1 lw 7526 11609 m  7629 11522 l  ps
7905 11291 m  7464 11465 l  7657 11695 l  7905 11291 l  p ef

pum
7101 13117 t
0.003 0.003 1.000 c 313 0 m  53 0 l  53 -53 l  78 -102 116 -151 166 -201 ct 
194 -228 l  232 -266 251 -304 251 -342 ct 251 -366 244 -385 230 -401 ct 216 -416 196 -423 171 -423 ct 
161 -423 151 -422 141 -421 ct 131 -419 121 -416 110 -412 ct 99 -408 85 -401 66 -391 ct 
66 -444 l  104 -460 141 -467 178 -467 ct 209 -467 235 -462 254 -451 ct 274 -440 290 -425 301 -407 ct 
312 -388 318 -367 318 -343 ct 318 -321 312 -299 301 -279 ct 291 -258 270 -233 240 -205 ct 
214 -180 l  199 -167 186 -153 174 -139 ct 163 -125 153 -111 145 -98 ct 137 -85 131 -70 127 -53 ct 
313 -53 l  313 0 l  p ef
pom

pum
6501 12839 t
545 -431 m  201 -431 l  204 -371 210 -315 220 -264 ct 248 -121 303 -49 384 -49 ct 
492 -49 545 -176 545 -431 ct p
198 -470 m  544 -470 l  543 -531 537 -590 526 -647 ct 496 -797 442 -872 362 -872 ct 
256 -872 202 -738 198 -470 ct p
333 10 m  269 10 215 -22 170 -84 ct 136 -134 112 -194 99 -265 ct 71 -408 81 -548 130 -687 ct 
186 -850 281 -931 412 -931 ct 474 -931 528 -899 572 -836 ct 606 -787 630 -728 643 -658 ct 
671 -513 662 -371 615 -234 ct 560 -71 466 10 333 10 ct p ef
pom
0.003 0.003 0.003 c 13769 6248 m  13782 6722 l  14064 6619 l  13769 6248 l 
p ef

pum
7139 10237 t
0.003 0.503 0.003 c 309 -92 m  324 -92 l  291 0 l  15 0 l  15 -13 l  96 -87 153 -147 186 -194 ct 
219 -241 235 -284 235 -323 ct 235 -352 226 -375 208 -394 ct 189 -412 167 -422 141 -422 ct 
118 -422 97 -415 79 -402 ct 60 -388 46 -369 37 -343 ct 25 -343 l  30 -386 45 -419 69 -441 ct 
93 -464 123 -476 159 -476 ct 198 -476 230 -464 256 -439 ct 281 -415 294 -387 294 -354 ct 
294 -331 289 -307 278 -283 ct 261 -246 233 -207 195 -165 ct 138 -103 102 -66 88 -54 ct 
209 -54 l  234 -54 251 -55 261 -57 ct 271 -59 280 -62 288 -68 ct 296 -73 303 -81 309 -92 ct 
p ef
pom

pum
12319 6662 t
84 -412 m  78 -422 l  194 -476 l  206 -476 l  206 -83 l  206 -56 207 -38 209 -32 ct 
211 -25 216 -20 223 -16 ct 230 -12 244 -10 265 -10 ct 265 0 l  88 0 l  88 -10 l 
110 -10 124 -12 130 -16 ct 136 -19 141 -24 143 -30 ct 146 -36 147 -54 147 -83 ct 
147 -338 l  147 -371 146 -392 144 -401 ct 142 -409 139 -414 135 -417 ct 131 -421 125 -423 119 -423 ct 
111 -423 99 -419 84 -412 ct p ef
pom

pum
12889 3863 t
461 -588 m  294 -588 l  294 -167 l  294 -106 300 -67 314 -51 ct 331 -30 354 -20 383 -20 ct 
441 -20 l  441 0 l  49 0 l  49 -20 l  79 -20 l  99 -20 117 -24 133 -34 ct 
150 -43 161 -56 167 -72 ct 173 -89 176 -120 176 -167 ct 176 -588 l  49 -588 l 
49 -637 l  176 -637 l  176 -678 l  176 -740 187 -793 207 -836 ct 227 -879 259 -914 301 -940 ct 
343 -967 390 -980 442 -980 ct 491 -980 536 -965 577 -935 ct 604 -915 617 -893 617 -868 ct 
617 -855 611 -843 599 -831 ct 587 -819 574 -813 561 -813 ct 550 -813 539 -817 527 -824 ct 
515 -831 501 -847 484 -870 ct 467 -894 451 -910 437 -918 ct 423 -927 407 -931 389 -931 ct 
368 -931 350 -925 335 -914 ct 321 -903 310 -886 304 -862 ct 297 -839 294 -779 294 -682 ct 
294 -637 l  461 -637 l  461 -588 l  p ef
pom

pum
8305 10999 t
461 -588 m  294 -588 l  294 -167 l  294 -106 300 -67 314 -51 ct 331 -30 354 -20 383 -20 ct 
441 -20 l  441 0 l  49 0 l  49 -20 l  79 -20 l  99 -20 117 -24 133 -34 ct 
150 -43 161 -56 167 -72 ct 173 -89 176 -120 176 -167 ct 176 -588 l  49 -588 l 
49 -637 l  176 -637 l  176 -678 l  176 -740 187 -793 207 -836 ct 227 -879 259 -914 301 -940 ct 
343 -967 390 -980 442 -980 ct 491 -980 536 -965 577 -935 ct 604 -915 617 -893 617 -868 ct 
617 -855 611 -843 599 -831 ct 587 -819 574 -813 561 -813 ct 550 -813 539 -817 527 -824 ct 
515 -831 501 -847 484 -870 ct 467 -894 451 -910 437 -918 ct 423 -927 407 -931 389 -931 ct 
368 -931 350 -925 335 -914 ct 321 -903 310 -886 304 -862 ct 297 -839 294 -779 294 -682 ct 
294 -637 l  461 -637 l  461 -588 l  p ef
pom

pum
12413 10272 t
461 -588 m  294 -588 l  294 -167 l  294 -106 300 -67 314 -51 ct 331 -30 354 -20 383 -20 ct 
441 -20 l  441 0 l  49 0 l  49 -20 l  79 -20 l  99 -20 117 -24 133 -34 ct 
150 -43 161 -56 167 -72 ct 173 -89 176 -120 176 -167 ct 176 -588 l  49 -588 l 
49 -637 l  176 -637 l  176 -678 l  176 -740 187 -793 207 -836 ct 227 -879 259 -914 301 -940 ct 
343 -967 390 -980 442 -980 ct 491 -980 536 -965 577 -935 ct 604 -915 617 -893 617 -868 ct 
617 -855 611 -843 599 -831 ct 587 -819 574 -813 561 -813 ct 550 -813 539 -817 527 -824 ct 
515 -831 501 -847 484 -870 ct 467 -894 451 -910 437 -918 ct 423 -927 407 -931 389 -931 ct 
368 -931 350 -925 335 -914 ct 321 -903 310 -886 304 -862 ct 297 -839 294 -779 294 -682 ct 
294 -637 l  461 -637 l  461 -588 l  p ef
pom

pum
4732 10991 t
461 -588 m  294 -588 l  294 -167 l  294 -106 300 -67 314 -51 ct 331 -30 354 -20 383 -20 ct 
441 -20 l  441 0 l  49 0 l  49 -20 l  79 -20 l  99 -20 117 -24 133 -34 ct 
150 -43 161 -56 167 -72 ct 173 -89 176 -120 176 -167 ct 176 -588 l  49 -588 l 
49 -637 l  176 -637 l  176 -678 l  176 -740 187 -793 207 -836 ct 227 -879 259 -914 301 -940 ct 
343 -967 390 -980 442 -980 ct 491 -980 536 -965 577 -935 ct 604 -915 617 -893 617 -868 ct 
617 -855 611 -843 599 -831 ct 587 -819 574 -813 561 -813 ct 550 -813 539 -817 527 -824 ct 
515 -831 501 -847 484 -870 ct 467 -894 451 -910 437 -918 ct 423 -927 407 -931 389 -931 ct 
368 -931 350 -925 335 -914 ct 321 -903 310 -886 304 -862 ct 297 -839 294 -779 294 -682 ct 
294 -637 l  461 -637 l  461 -588 l  p ef
pom

pum
12850 10472 t
84 -412 m  78 -422 l  194 -476 l  206 -476 l  206 -83 l  206 -56 207 -38 209 -32 ct 
211 -25 216 -20 223 -16 ct 230 -12 244 -10 265 -10 ct 265 0 l  88 0 l  88 -10 l 
110 -10 124 -12 130 -16 ct 136 -19 141 -24 143 -30 ct 146 -36 147 -54 147 -83 ct 
147 -338 l  147 -371 146 -392 144 -401 ct 142 -409 139 -414 135 -417 ct 131 -421 125 -423 119 -423 ct 
111 -423 99 -419 84 -412 ct p ef
410 -412 m  404 -422 l  520 -476 l  532 -476 l  532 -83 l  532 -56 533 -38 535 -32 ct 
537 -25 542 -20 549 -16 ct 556 -12 570 -10 591 -10 ct 591 0 l  414 0 l  414 -10 l 
436 -10 450 -12 456 -16 ct 462 -19 467 -24 469 -30 ct 472 -36 473 -54 473 -83 ct 
473 -338 l  473 -371 472 -392 470 -401 ct 468 -409 465 -414 461 -417 ct 457 -421 451 -423 445 -423 ct 
437 -423 425 -419 410 -412 ct p ef
pom

pum
13389 4022 t
84 -412 m  78 -422 l  194 -476 l  206 -476 l  206 -83 l  206 -56 207 -38 209 -32 ct 
211 -25 216 -20 223 -16 ct 230 -12 244 -10 265 -10 ct 265 0 l  88 0 l  88 -10 l 
110 -10 124 -12 130 -16 ct 136 -19 141 -24 143 -30 ct 146 -36 147 -54 147 -83 ct 
147 -338 l  147 -371 146 -392 144 -401 ct 142 -409 139 -414 135 -417 ct 131 -421 125 -423 119 -423 ct 
111 -423 99 -419 84 -412 ct p ef
662 -92 m  677 -92 l  644 0 l  368 0 l  368 -13 l  449 -87 506 -147 539 -194 ct 
572 -241 588 -284 588 -323 ct 588 -352 579 -375 561 -394 ct 542 -412 520 -422 494 -422 ct 
471 -422 450 -415 432 -402 ct 413 -388 399 -369 390 -343 ct 378 -343 l  383 -386 398 -419 422 -441 ct 
446 -464 476 -476 512 -476 ct 551 -476 583 -464 609 -439 ct 634 -415 647 -387 647 -354 ct 
647 -331 642 -307 631 -283 ct 614 -246 586 -207 548 -165 ct 491 -103 455 -66 441 -54 ct 
562 -54 l  587 -54 604 -55 614 -57 ct 624 -59 633 -62 641 -68 ct 649 -73 656 -81 662 -92 ct 
p ef
pom

pum
8844 11207 t
309 -92 m  324 -92 l  291 0 l  15 0 l  15 -13 l  96 -87 153 -147 186 -194 ct 
219 -241 235 -284 235 -323 ct 235 -352 226 -375 208 -394 ct 189 -412 167 -422 141 -422 ct 
118 -422 97 -415 79 -402 ct 60 -388 46 -369 37 -343 ct 25 -343 l  30 -386 45 -419 69 -441 ct 
93 -464 123 -476 159 -476 ct 198 -476 230 -464 256 -439 ct 281 -415 294 -387 294 -354 ct 
294 -331 289 -307 278 -283 ct 261 -246 233 -207 195 -165 ct 138 -103 102 -66 88 -54 ct 
209 -54 l  234 -54 251 -55 261 -57 ct 271 -59 280 -62 288 -68 ct 296 -73 303 -81 309 -92 ct 
p ef
437 -412 m  431 -422 l  547 -476 l  559 -476 l  559 -83 l  559 -56 560 -38 562 -32 ct 
564 -25 569 -20 576 -16 ct 583 -12 597 -10 618 -10 ct 618 0 l  441 0 l  441 -10 l 
463 -10 477 -12 483 -16 ct 489 -19 494 -24 496 -30 ct 499 -36 500 -54 500 -83 ct 
500 -338 l  500 -371 499 -392 497 -401 ct 495 -409 492 -414 488 -417 ct 484 -421 478 -423 472 -423 ct 
464 -423 452 -419 437 -412 ct p ef
pom

pum
5230 11207 t
309 -92 m  324 -92 l  291 0 l  15 0 l  15 -13 l  96 -87 153 -147 186 -194 ct 
219 -241 235 -284 235 -323 ct 235 -352 226 -375 208 -394 ct 189 -412 167 -422 141 -422 ct 
118 -422 97 -415 79 -402 ct 60 -388 46 -369 37 -343 ct 25 -343 l  30 -386 45 -419 69 -441 ct 
93 -464 123 -476 159 -476 ct 198 -476 230 -464 256 -439 ct 281 -415 294 -387 294 -354 ct 
294 -331 289 -307 278 -283 ct 261 -246 233 -207 195 -165 ct 138 -103 102 -66 88 -54 ct 
209 -54 l  234 -54 251 -55 261 -57 ct 271 -59 280 -62 288 -68 ct 296 -73 303 -81 309 -92 ct 
p ef
662 -92 m  677 -92 l  644 0 l  368 0 l  368 -13 l  449 -87 506 -147 539 -194 ct 
572 -241 588 -284 588 -323 ct 588 -352 579 -375 561 -394 ct 542 -412 520 -422 494 -422 ct 
471 -422 450 -415 432 -402 ct 413 -388 399 -369 390 -343 ct 378 -343 l  383 -386 398 -419 422 -441 ct 
446 -464 476 -476 512 -476 ct 551 -476 583 -464 609 -439 ct 634 -415 647 -387 647 -354 ct 
647 -331 642 -307 631 -283 ct 614 -246 586 -207 548 -165 ct 491 -103 455 -66 441 -54 ct 
562 -54 l  587 -54 604 -55 614 -57 ct 624 -59 633 -62 641 -68 ct 649 -73 656 -81 662 -92 ct 
p ef
pom

pum
15194 10281 t
0.503 0.003 0.003 c 260 -172 m  324 -172 l  324 -123 l  260 -123 l  260 0 l 
201 0 l  201 -123 l  15 -123 l  15 -167 l  221 -476 l  260 -476 l  260 -172 l 
p
46 -172 m  201 -172 l  201 -403 l  46 -172 l  p ef
pom

pum
4599 8467 t
46 -372 m  34 -378 l  48 -409 64 -433 85 -450 ct 105 -467 130 -476 161 -476 ct 
198 -476 227 -464 247 -439 ct 262 -421 270 -402 270 -382 ct 270 -348 247 -313 201 -277 ct 
230 -266 252 -250 267 -230 ct 282 -209 289 -184 289 -157 ct 289 -116 277 -82 251 -52 ct 
219 -14 171 5 109 5 ct 78 5 57 1 46 -6 ct 35 -14 29 -22 29 -30 ct 29 -36 32 -42 37 -47 ct 
42 -52 49 -54 56 -54 ct 61 -54 67 -53 73 -51 ct 76 -50 85 -46 98 -40 ct 111 -33 121 -29 126 -28 ct 
134 -26 142 -25 152 -25 ct 174 -25 194 -34 210 -52 ct 227 -70 235 -92 235 -116 ct 
235 -135 232 -152 224 -170 ct 218 -183 212 -192 205 -199 ct 196 -208 183 -217 167 -224 ct 
151 -232 134 -235 118 -235 ct 107 -235 l  107 -245 l  126 -247 144 -254 163 -264 ct 
181 -275 195 -287 203 -302 ct 212 -316 216 -332 216 -350 ct 216 -373 208 -391 193 -405 ct 
178 -419 159 -427 137 -427 ct 100 -427 70 -408 46 -372 ct p ef
pom
52 lw 0.003 0.003 0.003 c 7633 10462 m  9569 9147 l  ps
7255 10719 m  7835 10555 l  7621 10240 l  7255 10719 l  p ef
9947 8890 m  9367 9054 l  9581 9369 l  9947 8890 l  p ef
10564 8494 m  12601 7006 l  ps
10195 8764 m  10768 8581 l  10544 8273 l  10195 8764 l  p ef
12971 6736 m  12397 6919 l  12621 7227 l  12971 6736 l  p ef
103 lw 0.503 0.300 0.101 c 17105 8776 m  17827 8776 l  ps
18375 8776 m  17690 8548 l  17690 9005 l  18375 8776 l  p ef
gr
gs
0 0 m 21589 0 l 21589 27939 l 0 27939 l 0 0 l eoclip newpath
gr
gr
0 27940 t 
pom
count op_count sub {pop} repeat countdictstack dict_count sub {end} repeat b4_inc_state restore
%%PageTrailer
%%Trailer
%%EOF
