%!PS-Adobe-3.0 EPSF-3.0 
%%BoundingBox: 0 0 555 735
%%Pages: 0
%%Creator: Sun Microsystems, Inc.
%%Title: none
%%CreationDate: none
%%LanguageLevel: 2
%%EndComments
%%BeginProlog
%%BeginResource: procset SDRes-Prolog 1.0 0
/b4_inc_state save def
/dict_count countdictstack def
/op_count count 1 sub def
userdict begin
0 setgray 0 setlinecap 1 setlinewidth 0 setlinejoin 10 setmiterlimit[] 0 setdash newpath
/languagelevel where {pop languagelevel 1 ne {false setstrokeadjust false setoverprint} if} if
/bdef {bind def} bind def
/c {setrgbcolor} bdef
/l {neg lineto} bdef
/rl {neg rlineto} bdef
/lc {setlinecap} bdef
/lj {setlinejoin} bdef
/lw {setlinewidth} bdef
/ml {setmiterlimit} bdef
/ld {setdash} bdef
/m {neg moveto} bdef
/ct {6 2 roll neg 6 2 roll neg 6 2 roll neg curveto} bdef
/r {rotate} bdef
/t {neg translate} bdef
/s {scale} bdef
/sw {show} bdef
/gs {gsave} bdef
/gr {grestore} bdef
/f {findfont dup length dict begin
{1 index /FID ne {def} {pop pop} ifelse} forall /Encoding ISOLatin1Encoding def
currentdict end /NFont exch definefont pop /NFont findfont} bdef
/p {closepath} bdef
/sf {scalefont setfont} bdef
/ef {eofill}bdef
/pc {closepath stroke}bdef
/ps {stroke}bdef
/pum {matrix currentmatrix}bdef
/pom {setmatrix}bdef
/bs {/aString exch def /nXOfs exch def /nWidth exch def currentpoint nXOfs 0 rmoveto pum nWidth aString stringwidth pop div 1 scale aString show pom moveto} bdef
%%EndResource
%%EndProlog
%%BeginSetup
%%EndSetup
%%Page: 1 1
%%BeginPageSetup
%%EndPageSetup
pum
0.02833 0.02833 s 
0 -25940 t
/tm matrix currentmatrix def
gs
tm setmatrix
-1000 -1000 t 
1 1 s 
1000 1000 m 20589 1000 l 20589 26939 l 1000 26939 l 1000 1000 l eoclip newpath
gs
0 0 m 19589 0 l 19589 25939 l 0 25939 l 0 0 l eoclip newpath
176 lw 1348.38837 ml 0.003 0.003 0.003 c 10775 9076 m  10924 9616 10743 9802 10233 9633 ct 
ps

11365 8621 m  10773 8438 10593 8623 10822 9180 ct ps

11776 8029 m  11925 8569 11744 8755 11234 8586 ct ps

12365 7574 m  11773 7391 11593 7576 11822 8133 ct ps

12837 6995 m  12986 7535 12805 7721 12295 7552 ct ps

13427 6540 m  12835 6357 12655 6542 12884 7099 ct ps

13838 5948 m  13987 6488 13806 6674 13296 6505 ct ps

14428 5493 m  13836 5310 13656 5495 13885 6052 ct ps

14876 4888 m  15025 5428 14844 5614 14334 5445 ct ps

15465 4433 m  14873 4250 14693 4435 14922 4992 ct ps

15876 3841 m  16025 4381 15844 4567 15334 4398 ct ps

16466 3386 m  15874 3203 15694 3388 15923 3945 ct ps

16938 2807 m  17087 3347 16906 3533 16396 3364 ct ps

17528 2352 m  16936 2169 16756 2354 16985 2911 ct ps

17939 1760 m  18088 2300 17907 2486 17397 2317 ct ps

18528 1305 m  17936 1122 17756 1307 17985 1864 ct ps

9709 9063 m  9563 9604 9743 9789 10254 9618 ct ps

9120 8609 m  9710 8423 9892 8608 9665 9165 ct ps

8705 8020 m  8559 8561 8739 8746 9250 8575 ct ps

8116 7566 m  8705 7380 8887 7565 8660 8122 ct ps

7639 6990 m  7493 7531 7673 7716 8184 7545 ct ps

7049 6536 m  7639 6350 7821 6535 7594 7092 ct ps

6634 5947 m  6488 6488 6668 6673 7179 6502 ct ps

6045 5493 m  6634 5307 6816 5492 6589 6049 ct ps

5593 4891 m  5447 5432 5627 5617 6138 5446 ct ps

5004 4437 m  5593 4251 5775 4436 5548 4993 ct ps

4588 3848 m  4442 4389 4622 4574 5133 4403 ct ps

3998 3394 m  4588 3208 4770 3393 4543 3950 ct ps

3522 2818 m  3376 3359 3556 3544 4067 3373 ct ps

2932 2364 m  3522 2178 3704 2363 3477 2920 ct ps

2517 1775 m  2371 2316 2551 2501 3062 2330 ct ps

1928 1321 m  2517 1135 2699 1320 2472 1877 ct ps

177 lw 10191 9665 m  10550 10024 l  ps
10909 10383 m  11269 10743 l  ps
11628 11102 m  11987 11461 l  ps
12346 11820 m  12705 12180 l  ps
13065 12539 m  13424 12898 l  ps
13783 13257 m  14142 13617 l  ps
14501 13976 m  14860 14335 l  ps
15220 14694 m  15579 15053 l  ps
15938 15413 m  16297 15772 l  ps
16656 16131 m  17016 16490 l  ps
17375 16850 m  17734 17209 l  ps
18093 17568 m  18452 17927 l  ps
0.343 0.031 0.027 c 21120 7329 m  21120 13371 l  ps
21120 6385 m  20727 7566 l  21514 7566 l  21120 6385 l  p ef
1.000 0.003 0.003 c 5891 9995 m  5145 9995 l  ps
6313 9995 m  5785 10259 l  5785 9731 l  6313 9995 l  p ef
0.960 0.058 0.023 c 10332 9561 m  10385 9633 10385 9750 10332 9822 ct 10279 9895 10193 9895 10140 9822 ct 
10088 9750 10088 9633 10140 9561 ct 10193 9489 10279 9489 10332 9561 ct 10332 9561 l 
p ef



pum
5060 2675 t
0.003 0.503 0.003 c 1434 -1862 m  2005 -1862 l  2005 -1823 l  1939 -1810 1888 -1789 1854 -1758 ct 
1806 -1712 1763 -1642 1725 -1547 ct 1107 39 l  1033 39 l  328 -1571 l  292 -1654 267 -1705 252 -1724 ct 
229 -1753 201 -1775 167 -1791 ct 134 -1807 88 -1818 32 -1823 ct 32 -1862 l  810 -1862 l 
810 -1823 l  723 -1814 667 -1799 642 -1778 ct 616 -1757 603 -1730 603 -1697 ct 
603 -1651 624 -1579 666 -1482 ct 1146 -387 l  1568 -1468 l  1611 -1575 1632 -1649 1632 -1690 ct 
1632 -1717 1619 -1742 1593 -1767 ct 1566 -1791 1521 -1808 1458 -1818 ct 1453 -1819 1445 -1821 1434 -1823 ct 
1434 -1862 l  p ef
pom

pum
7200 1317 t
431 274 m  431 304 l  361 269 303 228 257 181 ct 190 114 139 36 103 -55 ct 67 -146 49 -240 49 -337 ct 
49 -480 84 -610 155 -728 ct 226 -845 318 -929 431 -980 ct 431 -950 l  375 -919 329 -877 293 -823 ct 
257 -768 231 -700 213 -617 ct 195 -534 186 -447 186 -357 ct 186 -259 194 -170 209 -89 ct 
221 -26 235 25 252 63 ct 269 101 291 138 320 173 ct 348 209 385 242 431 274 ct 
p ef
862 -950 m  862 -980 l  932 -945 991 -905 1037 -858 ct 1103 -791 1154 -712 1190 -621 ct 
1226 -531 1244 -437 1244 -339 ct 1244 -196 1209 -66 1139 52 ct 1068 169 976 253 862 304 ct 
862 274 l  918 243 964 200 1000 146 ct 1037 92 1063 24 1081 -60 ct 1098 -143 1107 -230 1107 -320 ct 
1107 -418 1100 -507 1085 -587 ct 1073 -651 1059 -701 1042 -739 ct 1025 -777 1002 -814 974 -849 ct 
946 -885 909 -918 862 -950 ct p ef
pom

pum
7500 1609 t
323 -712 m  322 -744 316 -775 307 -806 ct 293 -852 286 -884 286 -902 ct 286 -928 292 -947 302 -960 ct 
313 -973 326 -980 342 -980 ct 355 -980 367 -973 377 -960 ct 387 -947 392 -929 392 -905 ct 
392 -883 386 -853 375 -816 ct 363 -779 355 -745 353 -713 ct 377 -729 399 -749 418 -772 ct 
448 -808 470 -831 484 -839 ct 499 -848 513 -852 528 -852 ct 542 -852 554 -847 564 -837 ct 
573 -826 578 -814 578 -800 ct 578 -783 571 -768 557 -754 ct 544 -741 508 -727 450 -714 ct 
416 -706 388 -697 365 -687 ct 388 -675 416 -665 449 -658 ct 502 -648 537 -636 553 -620 ct 
570 -605 578 -589 578 -571 ct 578 -557 573 -545 563 -535 ct 553 -524 542 -519 529 -519 ct 
516 -519 501 -524 485 -534 ct 469 -543 448 -565 420 -598 ct 402 -621 380 -642 353 -662 ct 
354 -636 359 -607 368 -576 ct 384 -521 392 -483 392 -462 ct 392 -442 387 -426 377 -412 ct 
366 -399 355 -392 343 -392 ct 327 -392 312 -399 299 -413 ct 290 -424 286 -440 286 -463 ct 
286 -486 290 -514 299 -545 ct 309 -577 314 -598 317 -610 ct 319 -622 321 -639 323 -662 ct 
298 -644 277 -624 258 -602 ct 227 -564 203 -540 187 -530 ct 176 -523 164 -519 152 -519 ct 
137 -519 124 -525 114 -535 ct 103 -546 98 -557 98 -570 ct 98 -582 102 -594 111 -607 ct 
120 -619 134 -630 152 -638 ct 163 -643 190 -651 231 -660 ct 258 -666 284 -675 309 -686 ct 
286 -699 258 -708 226 -715 ct 173 -727 140 -738 127 -748 ct 108 -763 98 -781 98 -803 ct 
98 -815 103 -827 113 -837 ct 123 -847 134 -852 147 -852 ct 162 -852 177 -848 193 -838 ct 
209 -828 229 -809 252 -780 ct 275 -751 299 -728 323 -712 ct p ef
pom

pum
13292 2674 t
1434 -1862 m  2005 -1862 l  2005 -1823 l  1939 -1810 1888 -1789 1854 -1758 ct 
1806 -1712 1763 -1642 1725 -1547 ct 1107 39 l  1033 39 l  328 -1571 l  292 -1654 267 -1705 252 -1724 ct 
229 -1753 201 -1775 167 -1791 ct 134 -1807 88 -1818 32 -1823 ct 32 -1862 l  810 -1862 l 
810 -1823 l  723 -1814 667 -1799 642 -1778 ct 616 -1757 603 -1730 603 -1697 ct 
603 -1651 624 -1579 666 -1482 ct 1146 -387 l  1568 -1468 l  1611 -1575 1632 -1649 1632 -1690 ct 
1632 -1717 1619 -1742 1593 -1767 ct 1566 -1791 1521 -1808 1458 -1818 ct 1453 -1819 1445 -1821 1434 -1823 ct 
1434 -1862 l  p ef
pom

pum
15432 1316 t
431 274 m  431 304 l  361 269 303 228 257 181 ct 190 114 139 36 103 -55 ct 67 -146 49 -240 49 -337 ct 
49 -480 84 -610 155 -728 ct 226 -845 318 -929 431 -980 ct 431 -950 l  375 -919 329 -877 293 -823 ct 
257 -768 231 -700 213 -617 ct 195 -534 186 -447 186 -357 ct 186 -259 194 -170 209 -89 ct 
221 -26 235 25 252 63 ct 269 101 291 138 320 173 ct 348 209 385 242 431 274 ct 
p ef
862 -950 m  862 -980 l  932 -945 991 -905 1037 -858 ct 1103 -791 1154 -712 1190 -621 ct 
1226 -531 1244 -437 1244 -339 ct 1244 -196 1209 -66 1139 52 ct 1068 169 976 253 862 304 ct 
862 274 l  918 243 964 200 1000 146 ct 1037 92 1063 24 1081 -60 ct 1098 -143 1107 -230 1107 -320 ct 
1107 -418 1100 -507 1085 -587 ct 1073 -651 1059 -701 1042 -739 ct 1025 -777 1002 -814 974 -849 ct 
946 -885 909 -918 862 -950 ct p ef
pom

pum
15732 1608 t
323 -712 m  322 -744 316 -775 307 -806 ct 293 -852 286 -884 286 -902 ct 286 -928 292 -947 302 -960 ct 
313 -973 326 -980 342 -980 ct 355 -980 367 -973 377 -960 ct 387 -947 392 -929 392 -905 ct 
392 -883 386 -853 375 -816 ct 363 -779 355 -745 353 -713 ct 377 -729 399 -749 418 -772 ct 
448 -808 470 -831 484 -839 ct 499 -848 513 -852 528 -852 ct 542 -852 554 -847 564 -837 ct 
573 -826 578 -814 578 -800 ct 578 -783 571 -768 557 -754 ct 544 -741 508 -727 450 -714 ct 
416 -706 388 -697 365 -687 ct 388 -675 416 -665 449 -658 ct 502 -648 537 -636 553 -620 ct 
570 -605 578 -589 578 -571 ct 578 -557 573 -545 563 -535 ct 553 -524 542 -519 529 -519 ct 
516 -519 501 -524 485 -534 ct 469 -543 448 -565 420 -598 ct 402 -621 380 -642 353 -662 ct 
354 -636 359 -607 368 -576 ct 384 -521 392 -483 392 -462 ct 392 -442 387 -426 377 -412 ct 
366 -399 355 -392 343 -392 ct 327 -392 312 -399 299 -413 ct 290 -424 286 -440 286 -463 ct 
286 -486 290 -514 299 -545 ct 309 -577 314 -598 317 -610 ct 319 -622 321 -639 323 -662 ct 
298 -644 277 -624 258 -602 ct 227 -564 203 -540 187 -530 ct 176 -523 164 -519 152 -519 ct 
137 -519 124 -525 114 -535 ct 103 -546 98 -557 98 -570 ct 98 -582 102 -594 111 -607 ct 
120 -619 134 -630 152 -638 ct 163 -643 190 -651 231 -660 ct 258 -666 284 -675 309 -686 ct 
286 -699 258 -708 226 -715 ct 173 -727 140 -738 127 -748 ct 108 -763 98 -781 98 -803 ct 
98 -815 103 -827 113 -837 ct 123 -847 134 -852 147 -852 ct 162 -852 177 -848 193 -838 ct 
209 -828 229 -809 252 -780 ct 275 -751 299 -728 323 -712 ct p ef
pom

pum
16692 15375 t
568 -1529 m  568 -999 l  1470 -999 l  1470 -1529 l  1470 -1628 1464 -1694 1451 -1726 ct 
1442 -1750 1422 -1771 1392 -1788 ct 1351 -1811 1309 -1823 1263 -1823 ct 1195 -1823 l 
1195 -1862 l  2019 -1862 l  2019 -1823 l  1951 -1823 l  1905 -1823 1863 -1812 1822 -1789 ct 
1792 -1774 1771 -1751 1760 -1720 ct 1750 -1688 1744 -1625 1744 -1529 ct 1744 -333 l 
1744 -234 1750 -168 1763 -136 ct 1772 -112 1791 -91 1820 -74 ct 1862 -51 1905 -39 1951 -39 ct 
2019 -39 l  2019 0 l  1195 0 l  1195 -39 l  1263 -39 l  1342 -39 1399 -63 1435 -110 ct 
1458 -141 1470 -215 1470 -333 ct 1470 -901 l  568 -901 l  568 -333 l  568 -234 574 -168 587 -136 ct 
596 -112 616 -91 646 -74 ct 686 -51 729 -39 774 -39 ct 843 -39 l  843 0 l  20 0 l 
20 -39 l  88 -39 l  167 -39 224 -63 260 -110 ct 283 -141 294 -215 294 -333 ct 
294 -1529 l  294 -1628 288 -1694 276 -1726 ct 266 -1750 247 -1771 218 -1788 ct 
176 -1811 133 -1823 88 -1823 ct 20 -1823 l  20 -1862 l  843 -1862 l  843 -1823 l 
774 -1823 l  729 -1823 686 -1812 646 -1789 ct 617 -1774 596 -1751 585 -1720 ct 
574 -1688 568 -1625 568 -1529 ct p ef
pom

pum
18807 13482 t
431 274 m  431 304 l  361 269 303 228 257 181 ct 190 114 139 36 103 -55 ct 67 -146 49 -240 49 -337 ct 
49 -480 84 -610 155 -728 ct 226 -845 318 -929 431 -980 ct 431 -950 l  375 -919 329 -877 293 -823 ct 
257 -768 231 -700 213 -617 ct 195 -534 186 -447 186 -357 ct 186 -259 194 -170 209 -89 ct 
221 -26 235 25 252 63 ct 269 101 291 138 320 173 ct 348 209 385 242 431 274 ct 
p ef
862 -950 m  862 -980 l  932 -945 991 -905 1037 -858 ct 1103 -791 1154 -712 1190 -621 ct 
1226 -531 1244 -437 1244 -339 ct 1244 -196 1209 -66 1139 52 ct 1068 169 976 253 862 304 ct 
862 274 l  918 243 964 200 1000 146 ct 1037 92 1063 24 1081 -60 ct 1098 -143 1107 -230 1107 -320 ct 
1107 -418 1100 -507 1085 -587 ct 1073 -651 1059 -701 1042 -739 ct 1025 -777 1002 -814 974 -849 ct 
946 -885 909 -918 862 -950 ct p ef
pom

pum
19091 13874 t
323 -712 m  322 -744 316 -775 307 -806 ct 293 -852 286 -884 286 -902 ct 286 -928 292 -947 302 -960 ct 
313 -973 326 -980 342 -980 ct 355 -980 367 -973 377 -960 ct 387 -947 392 -929 392 -905 ct 
392 -883 386 -853 375 -816 ct 363 -779 355 -745 353 -713 ct 377 -729 399 -749 418 -772 ct 
448 -808 470 -831 484 -839 ct 499 -848 513 -852 528 -852 ct 542 -852 554 -847 564 -837 ct 
573 -826 578 -814 578 -800 ct 578 -783 571 -768 557 -754 ct 544 -741 508 -727 450 -714 ct 
416 -706 388 -697 365 -687 ct 388 -675 416 -665 449 -658 ct 502 -648 537 -636 553 -620 ct 
570 -605 578 -589 578 -571 ct 578 -557 573 -545 563 -535 ct 553 -524 542 -519 529 -519 ct 
516 -519 501 -524 485 -534 ct 469 -543 448 -565 420 -598 ct 402 -621 380 -642 353 -662 ct 
354 -636 359 -607 368 -576 ct 384 -521 392 -483 392 -462 ct 392 -442 387 -426 377 -412 ct 
366 -399 355 -392 343 -392 ct 327 -392 312 -399 299 -413 ct 290 -424 286 -440 286 -463 ct 
286 -486 290 -514 299 -545 ct 309 -577 314 -598 317 -610 ct 319 -622 321 -639 323 -662 ct 
298 -644 277 -624 258 -602 ct 227 -564 203 -540 187 -530 ct 176 -523 164 -519 152 -519 ct 
137 -519 124 -525 114 -535 ct 103 -546 98 -557 98 -570 ct 98 -582 102 -594 111 -607 ct 
120 -619 134 -630 152 -638 ct 163 -643 190 -651 231 -660 ct 258 -666 284 -675 309 -686 ct 
286 -699 258 -708 226 -715 ct 173 -727 140 -738 127 -748 ct 108 -763 98 -781 98 -803 ct 
98 -815 103 -827 113 -837 ct 123 -847 134 -852 147 -852 ct 162 -852 177 -848 193 -838 ct 
209 -828 229 -809 252 -780 ct 275 -751 299 -728 323 -712 ct p ef
pom
0.343 0.031 0.027 c 500 12832 m  500 6790 l  ps
500 13776 m  894 12596 l  107 12596 l  500 13776 l  p ef

pum
1050 10930 t
1.000 0.003 0.003 c 1434 -1862 m  2005 -1862 l  2005 -1823 l  1939 -1810 1888 -1789 1854 -1758 ct 
1806 -1712 1763 -1642 1725 -1547 ct 1107 39 l  1033 39 l  328 -1571 l  292 -1654 267 -1705 252 -1724 ct 
229 -1753 201 -1775 167 -1791 ct 134 -1807 88 -1818 32 -1823 ct 32 -1862 l  810 -1862 l 
810 -1823 l  723 -1814 667 -1799 642 -1778 ct 616 -1757 603 -1730 603 -1697 ct 
603 -1651 624 -1579 666 -1482 ct 1146 -387 l  1568 -1468 l  1611 -1575 1632 -1649 1632 -1690 ct 
1632 -1717 1619 -1742 1593 -1767 ct 1566 -1791 1521 -1808 1458 -1818 ct 1453 -1819 1445 -1821 1434 -1823 ct 
1434 -1862 l  p ef
3472 -1862 m  4043 -1862 l  4043 -1823 l  3977 -1810 3926 -1789 3892 -1758 ct 
3844 -1712 3801 -1642 3763 -1547 ct 3145 39 l  3071 39 l  2366 -1571 l  2330 -1654 2305 -1705 2290 -1724 ct 
2267 -1753 2239 -1775 2205 -1791 ct 2172 -1807 2126 -1818 2070 -1823 ct 2070 -1862 l 
2848 -1862 l  2848 -1823 l  2761 -1814 2705 -1799 2680 -1778 ct 2654 -1757 2641 -1730 2641 -1697 ct 
2641 -1651 2662 -1579 2704 -1482 ct 3184 -387 l  3606 -1468 l  3649 -1575 3670 -1649 3670 -1690 ct 
3670 -1717 3657 -1742 3631 -1767 ct 3604 -1791 3559 -1808 3496 -1818 ct 3491 -1819 3483 -1821 3472 -1823 ct 
3472 -1862 l  p ef
6004 -1529 m  6004 -999 l  6906 -999 l  6906 -1529 l  6906 -1628 6900 -1694 6887 -1726 ct 
6878 -1750 6858 -1771 6828 -1788 ct 6787 -1811 6745 -1823 6699 -1823 ct 6631 -1823 l 
6631 -1862 l  7455 -1862 l  7455 -1823 l  7387 -1823 l  7341 -1823 7299 -1812 7258 -1789 ct 
7228 -1774 7207 -1751 7196 -1720 ct 7186 -1688 7180 -1625 7180 -1529 ct 7180 -333 l 
7180 -234 7186 -168 7199 -136 ct 7208 -112 7227 -91 7256 -74 ct 7298 -51 7341 -39 7387 -39 ct 
7455 -39 l  7455 0 l  6631 0 l  6631 -39 l  6699 -39 l  6778 -39 6835 -63 6871 -110 ct 
6894 -141 6906 -215 6906 -333 ct 6906 -901 l  6004 -901 l  6004 -333 l  6004 -234 6010 -168 6023 -136 ct 
6032 -112 6052 -91 6082 -74 ct 6122 -51 6165 -39 6210 -39 ct 6279 -39 l  6279 0 l 
5456 0 l  5456 -39 l  5524 -39 l  5603 -39 5660 -63 5696 -110 ct 5719 -141 5730 -215 5730 -333 ct 
5730 -1529 l  5730 -1628 5724 -1694 5712 -1726 ct 5702 -1750 5683 -1771 5654 -1788 ct 
5612 -1811 5569 -1823 5524 -1823 ct 5456 -1823 l  5456 -1862 l  6279 -1862 l 
6279 -1823 l  6210 -1823 l  6165 -1823 6122 -1812 6082 -1789 ct 6053 -1774 6032 -1751 6021 -1720 ct 
6010 -1688 6004 -1625 6004 -1529 ct p ef
pom
0.343 0.031 0.027 c 13162 18085 m  7120 18085 l  ps
14106 18085 m  12926 17692 l  12926 18479 l  14106 18085 l  p ef

pum
12866 10825 t
1.000 0.003 0.003 c 568 -1529 m  568 -999 l  1470 -999 l  1470 -1529 l  1470 -1628 1464 -1694 1451 -1726 ct 
1442 -1750 1422 -1771 1392 -1788 ct 1351 -1811 1309 -1823 1263 -1823 ct 1195 -1823 l 
1195 -1862 l  2019 -1862 l  2019 -1823 l  1951 -1823 l  1905 -1823 1863 -1812 1822 -1789 ct 
1792 -1774 1771 -1751 1760 -1720 ct 1750 -1688 1744 -1625 1744 -1529 ct 1744 -333 l 
1744 -234 1750 -168 1763 -136 ct 1772 -112 1791 -91 1820 -74 ct 1862 -51 1905 -39 1951 -39 ct 
2019 -39 l  2019 0 l  1195 0 l  1195 -39 l  1263 -39 l  1342 -39 1399 -63 1435 -110 ct 
1458 -141 1470 -215 1470 -333 ct 1470 -901 l  568 -901 l  568 -333 l  568 -234 574 -168 587 -136 ct 
596 -112 616 -91 646 -74 ct 686 -51 729 -39 774 -39 ct 843 -39 l  843 0 l  20 0 l 
20 -39 l  88 -39 l  167 -39 224 -63 260 -110 ct 283 -141 294 -215 294 -333 ct 
294 -1529 l  294 -1628 288 -1694 276 -1726 ct 266 -1750 247 -1771 218 -1788 ct 
176 -1811 133 -1823 88 -1823 ct 20 -1823 l  20 -1862 l  843 -1862 l  843 -1823 l 
774 -1823 l  729 -1823 686 -1812 646 -1789 ct 617 -1774 596 -1751 585 -1720 ct 
574 -1688 568 -1625 568 -1529 ct p ef
4832 -1862 m  5403 -1862 l  5403 -1823 l  5337 -1810 5286 -1789 5252 -1758 ct 
5204 -1712 5161 -1642 5123 -1547 ct 4505 39 l  4431 39 l  3726 -1571 l  3690 -1654 3665 -1705 3650 -1724 ct 
3627 -1753 3599 -1775 3565 -1791 ct 3532 -1807 3486 -1818 3430 -1823 ct 3430 -1862 l 
4208 -1862 l  4208 -1823 l  4121 -1814 4065 -1799 4040 -1778 ct 4014 -1757 4001 -1730 4001 -1697 ct 
4001 -1651 4022 -1579 4064 -1482 ct 4544 -387 l  4966 -1468 l  5009 -1575 5030 -1649 5030 -1690 ct 
5030 -1717 5017 -1742 4991 -1767 ct 4964 -1791 4919 -1808 4856 -1818 ct 4851 -1819 4843 -1821 4832 -1823 ct 
4832 -1862 l  p ef
6870 -1862 m  7441 -1862 l  7441 -1823 l  7375 -1810 7324 -1789 7290 -1758 ct 
7242 -1712 7199 -1642 7161 -1547 ct 6543 39 l  6469 39 l  5764 -1571 l  5728 -1654 5703 -1705 5688 -1724 ct 
5665 -1753 5637 -1775 5603 -1791 ct 5570 -1807 5524 -1818 5468 -1823 ct 5468 -1862 l 
6246 -1862 l  6246 -1823 l  6159 -1814 6103 -1799 6078 -1778 ct 6052 -1757 6039 -1730 6039 -1697 ct 
6039 -1651 6060 -1579 6102 -1482 ct 6582 -387 l  7004 -1468 l  7047 -1575 7068 -1649 7068 -1690 ct 
7068 -1717 7055 -1742 7029 -1767 ct 7002 -1791 6957 -1808 6894 -1818 ct 6889 -1819 6881 -1821 6870 -1823 ct 
6870 -1862 l  p ef
pom

pum
6495 16939 t
1434 -1862 m  2005 -1862 l  2005 -1823 l  1939 -1810 1888 -1789 1854 -1758 ct 
1806 -1712 1763 -1642 1725 -1547 ct 1107 39 l  1033 39 l  328 -1571 l  292 -1654 267 -1705 252 -1724 ct 
229 -1753 201 -1775 167 -1791 ct 134 -1807 88 -1818 32 -1823 ct 32 -1862 l  810 -1862 l 
810 -1823 l  723 -1814 667 -1799 642 -1778 ct 616 -1757 603 -1730 603 -1697 ct 
603 -1651 624 -1579 666 -1482 ct 1146 -387 l  1568 -1468 l  1611 -1575 1632 -1649 1632 -1690 ct 
1632 -1717 1619 -1742 1593 -1767 ct 1566 -1791 1521 -1808 1458 -1818 ct 1453 -1819 1445 -1821 1434 -1823 ct 
1434 -1862 l  p ef
4781 -1862 m  5352 -1862 l  5352 -1823 l  5286 -1810 5235 -1789 5201 -1758 ct 
5153 -1712 5110 -1642 5072 -1547 ct 4454 39 l  4380 39 l  3675 -1571 l  3639 -1654 3614 -1705 3599 -1724 ct 
3576 -1753 3548 -1775 3514 -1791 ct 3481 -1807 3435 -1818 3379 -1823 ct 3379 -1862 l 
4157 -1862 l  4157 -1823 l  4070 -1814 4014 -1799 3989 -1778 ct 3963 -1757 3950 -1730 3950 -1697 ct 
3950 -1651 3971 -1579 4013 -1482 ct 4493 -387 l  4915 -1468 l  4958 -1575 4979 -1649 4979 -1690 ct 
4979 -1717 4966 -1742 4940 -1767 ct 4913 -1791 4868 -1808 4805 -1818 ct 4800 -1819 4792 -1821 4781 -1823 ct 
4781 -1862 l  p ef
5953 -1529 m  5953 -999 l  6855 -999 l  6855 -1529 l  6855 -1628 6849 -1694 6836 -1726 ct 
6827 -1750 6807 -1771 6777 -1788 ct 6736 -1811 6694 -1823 6648 -1823 ct 6580 -1823 l 
6580 -1862 l  7404 -1862 l  7404 -1823 l  7336 -1823 l  7290 -1823 7248 -1812 7207 -1789 ct 
7177 -1774 7156 -1751 7145 -1720 ct 7135 -1688 7129 -1625 7129 -1529 ct 7129 -333 l 
7129 -234 7135 -168 7148 -136 ct 7157 -112 7176 -91 7205 -74 ct 7247 -51 7290 -39 7336 -39 ct 
7404 -39 l  7404 0 l  6580 0 l  6580 -39 l  6648 -39 l  6727 -39 6784 -63 6820 -110 ct 
6843 -141 6855 -215 6855 -333 ct 6855 -901 l  5953 -901 l  5953 -333 l  5953 -234 5959 -168 5972 -136 ct 
5981 -112 6001 -91 6031 -74 ct 6071 -51 6114 -39 6159 -39 ct 6228 -39 l  6228 0 l 
5405 0 l  5405 -39 l  5473 -39 l  5552 -39 5609 -63 5645 -110 ct 5668 -141 5679 -215 5679 -333 ct 
5679 -1529 l  5679 -1628 5673 -1694 5661 -1726 ct 5651 -1750 5632 -1771 5603 -1788 ct 
5561 -1811 5518 -1823 5473 -1823 ct 5405 -1823 l  5405 -1862 l  6228 -1862 l 
6228 -1823 l  6159 -1823 l  6114 -1823 6071 -1812 6031 -1789 ct 6002 -1774 5981 -1751 5970 -1720 ct 
5959 -1688 5953 -1625 5953 -1529 ct p ef
pom
9298 16010 m  8552 16010 l  ps
9720 16010 m  9192 16274 l  9192 15746 l  9720 16010 l  p ef
16086 9895 m  15340 9895 l  ps
16508 9895 m  15980 10159 l  15980 9631 l  16508 9895 l  p ef
gr
gs
0 0 m 19589 0 l 19589 25939 l 0 25939 l 0 0 l eoclip newpath
gr
gr
0 25940 t 
pom
count op_count sub {pop} repeat countdictstack dict_count sub {end} repeat b4_inc_state restore
%%PageTrailer
%%Trailer
%%EOF
