%!PS-Adobe-3.0 EPSF-3.0
%%BoundingBox: 199 463 313 529
%%Creator: mschulze with JaxoDraw-2.1-0
%%Title: 
%%CreationDate: 13/1/2020
%%BeginProlog
/imStr 0 def /imageSrc {currentfile /ASCII85Decode filter /RunLengthDecode filter  imStr readstring pop } def
/BD {bind def} bind def
/D {def} BD
/C {curveto} BD
/L {lineto} BD
/M {moveto} BD
/R {grestore} BD
/G {gsave} BD
/N {newpath} BD
/P {closepath} BD
/EC {eoclip} BD
/WC {clip} BD
/EF {eofill} BD
/WF {fill} BD
/SG {setgray} BD
/SC {setrgbcolor} BD
/ISOF {
     dup findfont dup length 1 add dict begin {
             1 index /FID eq {pop pop} {D} ifelse
     } forall /Encoding ISOLatin1Encoding D
     currentdict end definefont
} BD
/NZ {dup 1 lt {pop 1} if} BD
/S {
     moveto 1 index stringwidth pop NZ sub
     1 index length 1 sub NZ div 0
     3 2 roll ashow newpath} BD
/FL [
    /AvantGarde-Book ISOF
    /AvantGarde-BookOblique ISOF
    /AvantGarde-Demi ISOF
    /AvantGarde-DemiOblique ISOF
    /Bookman-Demi ISOF
    /Bookman-DemiItalic ISOF
    /Bookman-Light ISOF
    /Bookman-LightItalic ISOF
    /Courier ISOF
    /Courier-Bold ISOF
    /Courier-BoldOblique ISOF
    /Courier-Oblique ISOF
    /Helvetica ISOF
    /Helvetica-Bold ISOF
    /Helvetica-BoldOblique ISOF
    /Helvetica-Narrow ISOF
    /Helvetica-Narrow-Bold ISOF
    /Helvetica-Narrow-BoldOblique ISOF
    /Helvetica-Narrow-Oblique ISOF
    /Helvetica-Oblique ISOF
    /NewCenturySchlbk-Bold ISOF
    /NewCenturySchlbk-BoldItalic ISOF
    /NewCenturySchlbk-Italic ISOF
    /NewCenturySchlbk-Roman ISOF
    /Palatino-Bold ISOF
    /Palatino-BoldItalic ISOF
    /Palatino-Italic ISOF
    /Palatino-Roman ISOF
    /Symbol findfont
    /Times-Bold ISOF
    /Times-BoldItalic ISOF
    /Times-Italic ISOF
    /Times-Roman ISOF
    /ZapfDingbats findfont
    /ZapfChancery-MediumItalic ISOF
] D
/F {
     FL exch get exch scalefont
     [1 0 0 -1 0 0] makefont setfont} BD
%%EndProlog
%%BeginSetup
<< /PageSize [612.0 792.0] /DeferredMediaSelection true /ImagingBBox null /ManualFeed false /NumCopies 1 >> pop 
%%EndSetup
%%Page: 1 1
/pgSave save def
792.0 0 exch translate 1 -1 scale[72 300.0 div 0 0 72 300.0 div 0 0]concat
G
[4.1666665 0.0 0.0 4.1666665 300.0 300.0] concat
N
0.0 0.0 M
468.0 0.0 L
468.0 648.0 L
0.0 648.0 L
0.0 0.0 L
P
WC
N
144.4 223.5 M
144.4 223.5 L
152.6 223.5 L
152.876 223.5 153.1 223.724 153.1 224.0 C
153.1 224.276 152.876 224.5 152.6 224.5 C
152.6 224.5 L
144.4 224.5 L
144.124 224.5 143.9 224.276 143.9 224.0 C
143.9 223.724 144.124 223.5 144.4 223.5 C
P
160.8 223.5 M
160.8 223.5 L
169.0 223.5 L
169.276 223.5 169.5 223.724 169.5 224.0 C
169.5 224.276 169.276 224.5 169.0 224.5 C
169.0 224.5 L
160.8 224.5 L
160.524 224.5 160.3 224.276 160.3 224.0 C
160.3 223.724 160.524 223.5 160.8 223.5 C
P
177.2 223.5 M
177.2 223.5 L
185.4 223.5 L
185.676 223.5 185.9 223.724 185.9 224.0 C
185.9 224.276 185.676 224.5 185.4 224.5 C
185.4 224.5 L
177.2 224.5 L
176.924 224.5 176.7 224.276 176.7 224.0 C
176.7 223.724 176.924 223.5 177.2 223.5 C
P
128.0 223.5 M
128.0 223.5 L
136.2 223.5 L
136.476 223.5 136.7 223.724 136.7 224.0 C
136.7 224.276 136.476 224.5 136.2 224.5 C
136.2 224.5 L
128.0 224.5 L
127.724 224.5 127.5 224.276 127.5 224.0 C
127.5 223.724 127.724 223.5 128.0 223.5 C
P
G
WC
WF
R N
N
196.243 224.0 M
196.243 226.343 194.343 228.243 192.0 228.243 C
189.657 228.243 187.757 226.343 187.757 224.0 C
187.757 221.657 189.657 219.757 192.0 219.757 C
194.343 219.757 196.243 221.657 196.243 224.0 C
P
G
WC
WF
R N
N
196.743 224.0 M
196.743 224.0 L
196.743 226.619 194.619 228.743 192.0 228.743 C
192.0 228.243 L
192.0 228.743 L
189.381 228.743 187.257 226.619 187.257 224.0 C
187.757 224.0 L
187.257 224.0 L
187.257 221.381 189.381 219.257 192.0 219.257 C
192.0 219.757 L
192.0 219.257 L
194.619 219.257 196.743 221.381 196.743 224.0 C
196.243 224.0 L
196.743 224.0 L
195.743 224.0 M
195.743 224.0 L
195.743 221.933 194.067 220.257 192.0 220.257 C
192.0 220.257 L
189.933 220.257 188.257 221.933 188.257 224.0 C
188.257 224.0 L
188.257 226.067 189.933 227.743 192.0 227.743 C
192.0 227.743 L
194.067 227.743 195.743 226.067 195.743 224.0 C
P
G
WC
WF
R N
N
192.277 223.584 M
192.277 223.584 L
240.277 255.584 L
240.693 255.861 L
240.139 256.693 L
239.723 256.416 L
191.723 224.416 L
191.307 224.139 L
191.861 223.307 L
P
G
WC
WF
R N
N
218.912 241.941 M
211.535 240.388 L
214.253 238.835 L
214.641 235.729 L
P
G
WC
WF
R N
N
218.809 242.431 M
218.809 242.431 L
211.432 240.878 L
210.145 240.607 L
211.287 239.954 L
214.005 238.401 L
214.253 238.835 L
213.757 238.773 L
214.145 235.667 L
214.308 234.362 L
215.053 235.446 L
219.324 241.658 L
220.032 242.688 L
218.809 242.431 L
219.015 241.452 M
218.912 241.941 L
218.5 242.225 L
214.229 236.012 L
214.641 235.729 L
215.137 235.791 L
214.749 238.897 L
214.718 239.145 L
214.501 239.269 L
211.783 240.822 L
211.535 240.388 L
211.638 239.899 L
219.015 241.452 L
P
G
WC
WF
R N
N
240.277 192.416 M
240.277 192.416 L
192.277 224.416 L
191.861 224.693 L
191.307 223.861 L
191.723 223.584 L
239.723 191.584 L
240.139 191.307 L
240.693 192.139 L
P
G
WC
WF
R N
N
213.088 209.941 M
217.359 203.729 L
217.747 206.835 L
220.465 208.388 L
P
G
WC
WF
R N
N
212.676 209.658 M
212.676 209.658 L
216.947 203.446 L
217.692 202.362 L
217.855 203.667 L
218.243 206.773 L
217.747 206.835 L
217.995 206.401 L
220.713 207.954 L
221.855 208.607 L
220.568 208.878 L
213.191 210.431 L
211.968 210.688 L
212.676 209.658 L
213.5 210.225 M
213.088 209.941 L
212.985 209.452 L
220.362 207.899 L
220.465 208.388 L
220.217 208.822 L
217.499 207.269 L
217.282 207.145 L
217.251 206.897 L
216.863 203.791 L
217.359 203.729 L
217.771 204.012 L
213.5 210.225 L
P
G
WC
WF
R N
pgSave restore
showpage
%%EOF
